^C:\USERS\GRUMP\ONEDRIVE - SWINBURNE UNIVERSITY\COS30031 - GAMES PROGRAMMING\REPOSITORY\COS30031-102388915\05 - LAB - DEBUGGING\DEBUGGING\DEBUGGING\DEBUG\DEBUGGING.OBJ
C:\USERS\GRUMP\ONEDRIVE - SWINBURNE UNIVERSITY\COS30031 - GAMES PROGRAMMING\REPOSITORY\COS30031-102388915\05 - LAB - DEBUGGING\DEBUGGING\DEBUG\DEBUGGING.EXE
C:\USERS\GRUMP\ONEDRIVE - SWINBURNE UNIVERSITY\COS30031 - GAMES PROGRAMMING\REPOSITORY\COS30031-102388915\05 - LAB - DEBUGGING\DEBUGGING\DEBUGGING\DEBUG\DEBUGGING.ILK
C:\USERS\GRUMP\ONEDRIVE - SWINBURNE UNIVERSITY\COS30031 - GAMES PROGRAMMING\REPOSITORY\COS30031-102388915\05 - LAB - DEBUGGING\DEBUGGING\DEBUG\DEBUGGING.PDB
