^C:\USERS\GRUMP\ONEDRIVE - SWINBURNE UNIVERSITY\COS30031 - GAMES PROGRAMMING\REPOSITORY\COS30031-102388915\08 - SPIKE - GAME STATE MANAGEMENT\ZORKISH\ZORKISH\DEBUG\ABOUTSTATE.OBJ|C:\USERS\GRUMP\ONEDRIVE - SWINBURNE UNIVERSITY\COS30031 - GAMES PROGRAMMING\REPOSITORY\COS30031-102388915\08 - SPIKE - GAME STATE MANAGEMENT\ZORKISH\ZORKISH\DEBUG\GAMEPLAYSTATE.OBJ|C:\USERS\GRUMP\ONEDRIVE - SWINBURNE UNIVERSITY\COS30031 - GAMES PROGRAMMING\REPOSITORY\COS30031-102388915\08 - SPIKE - GAME STATE MANAGEMENT\ZORKISH\ZORKISH\DEBUG\HELPSTATE.OBJ|C:\USERS\GRUMP\ONEDRIVE - SWINBURNE UNIVERSITY\COS30031 - GAMES PROGRAMMING\REPOSITORY\COS30031-102388915\08 - SPIKE - GAME STATE MANAGEMENT\ZORKISH\ZORKISH\DEBUG\MAINMENUSTATE.OBJ|C:\USERS\GRUMP\ONEDRIVE - SWINBURNE UNIVERSITY\COS30031 - GAMES PROGRAMMING\REPOSITORY\COS30031-102388915\08 - SPIKE - GAME STATE MANAGEMENT\ZORKISH\ZORKISH\DEBUG\NEWHIGHSCORESTATE.OBJ|C:\USERS\GRUMP\ONEDRIVE - SWINBURNE UNIVERSITY\COS30031 - GAMES PROGRAMMING\REPOSITORY\COS30031-102388915\08 - SPIKE - GAME STATE MANAGEMENT\ZORKISH\ZORKISH\DEBUG\SELECTADVENTURESTATE.OBJ|C:\USERS\GRUMP\ONEDRIVE - SWINBURNE UNIVERSITY\COS30031 - GAMES PROGRAMMING\REPOSITORY\COS30031-102388915\08 - SPIKE - GAME STATE MANAGEMENT\ZORKISH\ZORKISH\DEBUG\STATEMANAGER.OBJ|C:\USERS\GRUMP\ONEDRIVE - SWINBURNE UNIVERSITY\COS30031 - GAMES PROGRAMMING\REPOSITORY\COS30031-102388915\08 - SPIKE - GAME STATE MANAGEMENT\ZORKISH\ZORKISH\DEBUG\VIEWHALLOFFAMESTATE.OBJ|C:\USERS\GRUMP\ONEDRIVE - SWINBURNE UNIVERSITY\COS30031 - GAMES PROGRAMMING\REPOSITORY\COS30031-102388915\08 - SPIKE - GAME STATE MANAGEMENT\ZORKISH\ZORKISH\DEBUG\ZORKISH.OBJ
C:\USERS\GRUMP\ONEDRIVE - SWINBURNE UNIVERSITY\COS30031 - GAMES PROGRAMMING\REPOSITORY\COS30031-102388915\08 - SPIKE - GAME STATE MANAGEMENT\ZORKISH\DEBUG\ZORKISH.EXE
C:\USERS\GRUMP\ONEDRIVE - SWINBURNE UNIVERSITY\COS30031 - GAMES PROGRAMMING\REPOSITORY\COS30031-102388915\08 - SPIKE - GAME STATE MANAGEMENT\ZORKISH\ZORKISH\DEBUG\ZORKISH.ILK
C:\USERS\GRUMP\ONEDRIVE - SWINBURNE UNIVERSITY\COS30031 - GAMES PROGRAMMING\REPOSITORY\COS30031-102388915\08 - SPIKE - GAME STATE MANAGEMENT\ZORKISH\DEBUG\ZORKISH.PDB
^C:\USERS\GRUMP\ONEDRIVE - SWINBURNE UNIVERSITY\COS30031 - GAMES PROGRAMMING\REPOSITORY\COS30031-102388915\09 - SPIKE - GAME DATA STRUCTURES\ZORKISH\ZORKISH\DEBUG\ABOUTSTATE.OBJ|C:\USERS\GRUMP\ONEDRIVE - SWINBURNE UNIVERSITY\COS30031 - GAMES PROGRAMMING\REPOSITORY\COS30031-102388915\09 - SPIKE - GAME DATA STRUCTURES\ZORKISH\ZORKISH\DEBUG\BAG.OBJ|C:\USERS\GRUMP\ONEDRIVE - SWINBURNE UNIVERSITY\COS30031 - GAMES PROGRAMMING\REPOSITORY\COS30031-102388915\09 - SPIKE - GAME DATA STRUCTURES\ZORKISH\ZORKISH\DEBUG\COIN.OBJ|C:\USERS\GRUMP\ONEDRIVE - SWINBURNE UNIVERSITY\COS30031 - GAMES PROGRAMMING\REPOSITORY\COS30031-102388915\09 - SPIKE - GAME DATA STRUCTURES\ZORKISH\ZORKISH\DEBUG\GAMEPLAYSTATE.OBJ|C:\USERS\GRUMP\ONEDRIVE - SWINBURNE UNIVERSITY\COS30031 - GAMES PROGRAMMING\REPOSITORY\COS30031-102388915\09 - SPIKE - GAME DATA STRUCTURES\ZORKISH\ZORKISH\DEBUG\HELPSTATE.OBJ|C:\USERS\GRUMP\ONEDRIVE - SWINBURNE UNIVERSITY\COS30031 - GAMES PROGRAMMING\REPOSITORY\COS30031-102388915\09 - SPIKE - GAME DATA STRUCTURES\ZORKISH\ZORKISH\DEBUG\INVENTORY.OBJ|C:\USERS\GRUMP\ONEDRIVE - SWINBURNE UNIVERSITY\COS30031 - GAMES PROGRAMMING\REPOSITORY\COS30031-102388915\09 - SPIKE - GAME DATA STRUCTURES\ZORKISH\ZORKISH\DEBUG\MAINMENUSTATE.OBJ|C:\USERS\GRUMP\ONEDRIVE - SWINBURNE UNIVERSITY\COS30031 - GAMES PROGRAMMING\REPOSITORY\COS30031-102388915\09 - SPIKE - GAME DATA STRUCTURES\ZORKISH\ZORKISH\DEBUG\NEWHIGHSCORESTATE.OBJ|C:\USERS\GRUMP\ONEDRIVE - SWINBURNE UNIVERSITY\COS30031 - GAMES PROGRAMMING\REPOSITORY\COS30031-102388915\09 - SPIKE - GAME DATA STRUCTURES\ZORKISH\ZORKISH\DEBUG\PLAYER.OBJ|C:\USERS\GRUMP\ONEDRIVE - SWINBURNE UNIVERSITY\COS30031 - GAMES PROGRAMMING\REPOSITORY\COS30031-102388915\09 - SPIKE - GAME DATA STRUCTURES\ZORKISH\ZORKISH\DEBUG\SELECTADVENTURESTATE.OBJ|C:\USERS\GRUMP\ONEDRIVE - SWINBURNE UNIVERSITY\COS30031 - GAMES PROGRAMMING\REPOSITORY\COS30031-102388915\09 - SPIKE - GAME DATA STRUCTURES\ZORKISH\ZORKISH\DEBUG\STATEMANAGER.OBJ|C:\USERS\GRUMP\ONEDRIVE - SWINBURNE UNIVERSITY\COS30031 - GAMES PROGRAMMING\REPOSITORY\COS30031-102388915\09 - SPIKE - GAME DATA STRUCTURES\ZORKISH\ZORKISH\DEBUG\VIEWHALLOFFAMESTATE.OBJ|C:\USERS\GRUMP\ONEDRIVE - SWINBURNE UNIVERSITY\COS30031 - GAMES PROGRAMMING\REPOSITORY\COS30031-102388915\09 - SPIKE - GAME DATA STRUCTURES\ZORKISH\ZORKISH\DEBUG\ZORKISH.OBJ
C:\USERS\GRUMP\ONEDRIVE - SWINBURNE UNIVERSITY\COS30031 - GAMES PROGRAMMING\REPOSITORY\COS30031-102388915\09 - SPIKE - GAME DATA STRUCTURES\ZORKISH\DEBUG\ZORKISH.EXE
C:\USERS\GRUMP\ONEDRIVE - SWINBURNE UNIVERSITY\COS30031 - GAMES PROGRAMMING\REPOSITORY\COS30031-102388915\09 - SPIKE - GAME DATA STRUCTURES\ZORKISH\ZORKISH\DEBUG\ZORKISH.ILK
C:\USERS\GRUMP\ONEDRIVE - SWINBURNE UNIVERSITY\COS30031 - GAMES PROGRAMMING\REPOSITORY\COS30031-102388915\09 - SPIKE - GAME DATA STRUCTURES\ZORKISH\DEBUG\ZORKISH.PDB
^C:\USERS\GRUMP\ONEDRIVE - SWINBURNE UNIVERSITY\COS30031 - GAMES PROGRAMMING\REPOSITORY\COS30031-102388915\12 - SPIKE - COMMAND PATTERN\ZORKISH\ZORKISH\DEBUG\ABOUTSTATE.OBJ|C:\USERS\GRUMP\ONEDRIVE - SWINBURNE UNIVERSITY\COS30031 - GAMES PROGRAMMING\REPOSITORY\COS30031-102388915\12 - SPIKE - COMMAND PATTERN\ZORKISH\ZORKISH\DEBUG\BAG.OBJ|C:\USERS\GRUMP\ONEDRIVE - SWINBURNE UNIVERSITY\COS30031 - GAMES PROGRAMMING\REPOSITORY\COS30031-102388915\12 - SPIKE - COMMAND PATTERN\ZORKISH\ZORKISH\DEBUG\COIN.OBJ|C:\USERS\GRUMP\ONEDRIVE - SWINBURNE UNIVERSITY\COS30031 - GAMES PROGRAMMING\REPOSITORY\COS30031-102388915\12 - SPIKE - COMMAND PATTERN\ZORKISH\ZORKISH\DEBUG\COMMANDMANAGER.OBJ|C:\USERS\GRUMP\ONEDRIVE - SWINBURNE UNIVERSITY\COS30031 - GAMES PROGRAMMING\REPOSITORY\COS30031-102388915\12 - SPIKE - COMMAND PATTERN\ZORKISH\ZORKISH\DEBUG\COMMANDS.OBJ|C:\USERS\GRUMP\ONEDRIVE - SWINBURNE UNIVERSITY\COS30031 - GAMES PROGRAMMING\REPOSITORY\COS30031-102388915\12 - SPIKE - COMMAND PATTERN\ZORKISH\ZORKISH\DEBUG\GAMEPLAYSTATE.OBJ|C:\USERS\GRUMP\ONEDRIVE - SWINBURNE UNIVERSITY\COS30031 - GAMES PROGRAMMING\REPOSITORY\COS30031-102388915\12 - SPIKE - COMMAND PATTERN\ZORKISH\ZORKISH\DEBUG\GRAPH.OBJ|C:\USERS\GRUMP\ONEDRIVE - SWINBURNE UNIVERSITY\COS30031 - GAMES PROGRAMMING\REPOSITORY\COS30031-102388915\12 - SPIKE - COMMAND PATTERN\ZORKISH\ZORKISH\DEBUG\HELPSTATE.OBJ|C:\USERS\GRUMP\ONEDRIVE - SWINBURNE UNIVERSITY\COS30031 - GAMES PROGRAMMING\REPOSITORY\COS30031-102388915\12 - SPIKE - COMMAND PATTERN\ZORKISH\ZORKISH\DEBUG\INVENTORY.OBJ|C:\USERS\GRUMP\ONEDRIVE - SWINBURNE UNIVERSITY\COS30031 - GAMES PROGRAMMING\REPOSITORY\COS30031-102388915\12 - SPIKE - COMMAND PATTERN\ZORKISH\ZORKISH\DEBUG\ITEM.OBJ|C:\USERS\GRUMP\ONEDRIVE - SWINBURNE UNIVERSITY\COS30031 - GAMES PROGRAMMING\REPOSITORY\COS30031-102388915\12 - SPIKE - COMMAND PATTERN\ZORKISH\ZORKISH\DEBUG\MAINMENUSTATE.OBJ|C:\USERS\GRUMP\ONEDRIVE - SWINBURNE UNIVERSITY\COS30031 - GAMES PROGRAMMING\REPOSITORY\COS30031-102388915\12 - SPIKE - COMMAND PATTERN\ZORKISH\ZORKISH\DEBUG\NEWHIGHSCORESTATE.OBJ|C:\USERS\GRUMP\ONEDRIVE - SWINBURNE UNIVERSITY\COS30031 - GAMES PROGRAMMING\REPOSITORY\COS30031-102388915\12 - SPIKE - COMMAND PATTERN\ZORKISH\ZORKISH\DEBUG\PLAYER.OBJ|C:\USERS\GRUMP\ONEDRIVE - SWINBURNE UNIVERSITY\COS30031 - GAMES PROGRAMMING\REPOSITORY\COS30031-102388915\12 - SPIKE - COMMAND PATTERN\ZORKISH\ZORKISH\DEBUG\ROOM.OBJ|C:\USERS\GRUMP\ONEDRIVE - SWINBURNE UNIVERSITY\COS30031 - GAMES PROGRAMMING\REPOSITORY\COS30031-102388915\12 - SPIKE - COMMAND PATTERN\ZORKISH\ZORKISH\DEBUG\SELECTADVENTURESTATE.OBJ|C:\USERS\GRUMP\ONEDRIVE - SWINBURNE UNIVERSITY\COS30031 - GAMES PROGRAMMING\REPOSITORY\COS30031-102388915\12 - SPIKE - COMMAND PATTERN\ZORKISH\ZORKISH\DEBUG\STATEMANAGER.OBJ|C:\USERS\GRUMP\ONEDRIVE - SWINBURNE UNIVERSITY\COS30031 - GAMES PROGRAMMING\REPOSITORY\COS30031-102388915\12 - SPIKE - COMMAND PATTERN\ZORKISH\ZORKISH\DEBUG\VIEWHALLOFFAMESTATE.OBJ|C:\USERS\GRUMP\ONEDRIVE - SWINBURNE UNIVERSITY\COS30031 - GAMES PROGRAMMING\REPOSITORY\COS30031-102388915\12 - SPIKE - COMMAND PATTERN\ZORKISH\ZORKISH\DEBUG\ZORKISH.OBJ
C:\USERS\GRUMP\ONEDRIVE - SWINBURNE UNIVERSITY\COS30031 - GAMES PROGRAMMING\REPOSITORY\COS30031-102388915\12 - SPIKE - COMMAND PATTERN\ZORKISH\DEBUG\ZORKISH.EXE
C:\USERS\GRUMP\ONEDRIVE - SWINBURNE UNIVERSITY\COS30031 - GAMES PROGRAMMING\REPOSITORY\COS30031-102388915\12 - SPIKE - COMMAND PATTERN\ZORKISH\ZORKISH\DEBUG\ZORKISH.ILK
C:\USERS\GRUMP\ONEDRIVE - SWINBURNE UNIVERSITY\COS30031 - GAMES PROGRAMMING\REPOSITORY\COS30031-102388915\12 - SPIKE - COMMAND PATTERN\ZORKISH\DEBUG\ZORKISH.PDB
^C:\USERS\GRUMP\ONEDRIVE - SWINBURNE UNIVERSITY\COS30031 - GAMES PROGRAMMING\REPOSITORY\COS30031-102388915\13 - SPIKE - COMPOSITE AND COMPONENT PATTERNS\ZORKISH\ZORKISH\DEBUG\ABOUTSTATE.OBJ|C:\USERS\GRUMP\ONEDRIVE - SWINBURNE UNIVERSITY\COS30031 - GAMES PROGRAMMING\REPOSITORY\COS30031-102388915\13 - SPIKE - COMPOSITE AND COMPONENT PATTERNS\ZORKISH\ZORKISH\DEBUG\BAG.OBJ|C:\USERS\GRUMP\ONEDRIVE - SWINBURNE UNIVERSITY\COS30031 - GAMES PROGRAMMING\REPOSITORY\COS30031-102388915\13 - SPIKE - COMPOSITE AND COMPONENT PATTERNS\ZORKISH\ZORKISH\DEBUG\COIN.OBJ|C:\USERS\GRUMP\ONEDRIVE - SWINBURNE UNIVERSITY\COS30031 - GAMES PROGRAMMING\REPOSITORY\COS30031-102388915\13 - SPIKE - COMPOSITE AND COMPONENT PATTERNS\ZORKISH\ZORKISH\DEBUG\COMMANDMANAGER.OBJ|C:\USERS\GRUMP\ONEDRIVE - SWINBURNE UNIVERSITY\COS30031 - GAMES PROGRAMMING\REPOSITORY\COS30031-102388915\13 - SPIKE - COMPOSITE AND COMPONENT PATTERNS\ZORKISH\ZORKISH\DEBUG\COMMANDS.OBJ|C:\USERS\GRUMP\ONEDRIVE - SWINBURNE UNIVERSITY\COS30031 - GAMES PROGRAMMING\REPOSITORY\COS30031-102388915\13 - SPIKE - COMPOSITE AND COMPONENT PATTERNS\ZORKISH\ZORKISH\DEBUG\COMPONENTMANAGER.OBJ|C:\USERS\GRUMP\ONEDRIVE - SWINBURNE UNIVERSITY\COS30031 - GAMES PROGRAMMING\REPOSITORY\COS30031-102388915\13 - SPIKE - COMPOSITE AND COMPONENT PATTERNS\ZORKISH\ZORKISH\DEBUG\COMPONENTS.OBJ|C:\USERS\GRUMP\ONEDRIVE - SWINBURNE UNIVERSITY\COS30031 - GAMES PROGRAMMING\REPOSITORY\COS30031-102388915\13 - SPIKE - COMPOSITE AND COMPONENT PATTERNS\ZORKISH\ZORKISH\DEBUG\ENTITIES.OBJ|C:\USERS\GRUMP\ONEDRIVE - SWINBURNE UNIVERSITY\COS30031 - GAMES PROGRAMMING\REPOSITORY\COS30031-102388915\13 - SPIKE - COMPOSITE AND COMPONENT PATTERNS\ZORKISH\ZORKISH\DEBUG\GAMEPLAYSTATE.OBJ|C:\USERS\GRUMP\ONEDRIVE - SWINBURNE UNIVERSITY\COS30031 - GAMES PROGRAMMING\REPOSITORY\COS30031-102388915\13 - SPIKE - COMPOSITE AND COMPONENT PATTERNS\ZORKISH\ZORKISH\DEBUG\GRAPH.OBJ|C:\USERS\GRUMP\ONEDRIVE - SWINBURNE UNIVERSITY\COS30031 - GAMES PROGRAMMING\REPOSITORY\COS30031-102388915\13 - SPIKE - COMPOSITE AND COMPONENT PATTERNS\ZORKISH\ZORKISH\DEBUG\HELPSTATE.OBJ|C:\USERS\GRUMP\ONEDRIVE - SWINBURNE UNIVERSITY\COS30031 - GAMES PROGRAMMING\REPOSITORY\COS30031-102388915\13 - SPIKE - COMPOSITE AND COMPONENT PATTERNS\ZORKISH\ZORKISH\DEBUG\INVENTORY.OBJ|C:\USERS\GRUMP\ONEDRIVE - SWINBURNE UNIVERSITY\COS30031 - GAMES PROGRAMMING\REPOSITORY\COS30031-102388915\13 - SPIKE - COMPOSITE AND COMPONENT PATTERNS\ZORKISH\ZORKISH\DEBUG\ITEM.OBJ|C:\USERS\GRUMP\ONEDRIVE - SWINBURNE UNIVERSITY\COS30031 - GAMES PROGRAMMING\REPOSITORY\COS30031-102388915\13 - SPIKE - COMPOSITE AND COMPONENT PATTERNS\ZORKISH\ZORKISH\DEBUG\MAINMENUSTATE.OBJ|C:\USERS\GRUMP\ONEDRIVE - SWINBURNE UNIVERSITY\COS30031 - GAMES PROGRAMMING\REPOSITORY\COS30031-102388915\13 - SPIKE - COMPOSITE AND COMPONENT PATTERNS\ZORKISH\ZORKISH\DEBUG\NEWHIGHSCORESTATE.OBJ|C:\USERS\GRUMP\ONEDRIVE - SWINBURNE UNIVERSITY\COS30031 - GAMES PROGRAMMING\REPOSITORY\COS30031-102388915\13 - SPIKE - COMPOSITE AND COMPONENT PATTERNS\ZORKISH\ZORKISH\DEBUG\PLAYER.OBJ|C:\USERS\GRUMP\ONEDRIVE - SWINBURNE UNIVERSITY\COS30031 - GAMES PROGRAMMING\REPOSITORY\COS30031-102388915\13 - SPIKE - COMPOSITE AND COMPONENT PATTERNS\ZORKISH\ZORKISH\DEBUG\ROOM.OBJ|C:\USERS\GRUMP\ONEDRIVE - SWINBURNE UNIVERSITY\COS30031 - GAMES PROGRAMMING\REPOSITORY\COS30031-102388915\13 - SPIKE - COMPOSITE AND COMPONENT PATTERNS\ZORKISH\ZORKISH\DEBUG\SELECTADVENTURESTATE.OBJ|C:\USERS\GRUMP\ONEDRIVE - SWINBURNE UNIVERSITY\COS30031 - GAMES PROGRAMMING\REPOSITORY\COS30031-102388915\13 - SPIKE - COMPOSITE AND COMPONENT PATTERNS\ZORKISH\ZORKISH\DEBUG\STATEMANAGER.OBJ|C:\USERS\GRUMP\ONEDRIVE - SWINBURNE UNIVERSITY\COS30031 - GAMES PROGRAMMING\REPOSITORY\COS30031-102388915\13 - SPIKE - COMPOSITE AND COMPONENT PATTERNS\ZORKISH\ZORKISH\DEBUG\VIEWHALLOFFAMESTATE.OBJ|C:\USERS\GRUMP\ONEDRIVE - SWINBURNE UNIVERSITY\COS30031 - GAMES PROGRAMMING\REPOSITORY\COS30031-102388915\13 - SPIKE - COMPOSITE AND COMPONENT PATTERNS\ZORKISH\ZORKISH\DEBUG\ZORKISH.OBJ
C:\USERS\GRUMP\ONEDRIVE - SWINBURNE UNIVERSITY\COS30031 - GAMES PROGRAMMING\REPOSITORY\COS30031-102388915\13 - SPIKE - COMPOSITE AND COMPONENT PATTERNS\ZORKISH\DEBUG\ZORKISH.EXE
C:\USERS\GRUMP\ONEDRIVE - SWINBURNE UNIVERSITY\COS30031 - GAMES PROGRAMMING\REPOSITORY\COS30031-102388915\13 - SPIKE - COMPOSITE AND COMPONENT PATTERNS\ZORKISH\ZORKISH\DEBUG\ZORKISH.ILK
C:\USERS\GRUMP\ONEDRIVE - SWINBURNE UNIVERSITY\COS30031 - GAMES PROGRAMMING\REPOSITORY\COS30031-102388915\13 - SPIKE - COMPOSITE AND COMPONENT PATTERNS\ZORKISH\DEBUG\ZORKISH.PDB
