^C:\USERS\GRUMP\ONEDRIVE - SWINBURNE UNIVERSITY\COS30031 - GAMES PROGRAMMING\REPOSITORY\COS30031-102388915\08 - SPIKE - GAME STATE MANAGEMENT\ZORKISH\ZORKISH\DEBUG\ABOUTSTATE.OBJ|C:\USERS\GRUMP\ONEDRIVE - SWINBURNE UNIVERSITY\COS30031 - GAMES PROGRAMMING\REPOSITORY\COS30031-102388915\08 - SPIKE - GAME STATE MANAGEMENT\ZORKISH\ZORKISH\DEBUG\GAMEPLAYSTATE.OBJ|C:\USERS\GRUMP\ONEDRIVE - SWINBURNE UNIVERSITY\COS30031 - GAMES PROGRAMMING\REPOSITORY\COS30031-102388915\08 - SPIKE - GAME STATE MANAGEMENT\ZORKISH\ZORKISH\DEBUG\HELPSTATE.OBJ|C:\USERS\GRUMP\ONEDRIVE - SWINBURNE UNIVERSITY\COS30031 - GAMES PROGRAMMING\REPOSITORY\COS30031-102388915\08 - SPIKE - GAME STATE MANAGEMENT\ZORKISH\ZORKISH\DEBUG\MAINMENUSTATE.OBJ|C:\USERS\GRUMP\ONEDRIVE - SWINBURNE UNIVERSITY\COS30031 - GAMES PROGRAMMING\REPOSITORY\COS30031-102388915\08 - SPIKE - GAME STATE MANAGEMENT\ZORKISH\ZORKISH\DEBUG\NEWHIGHSCORESTATE.OBJ|C:\USERS\GRUMP\ONEDRIVE - SWINBURNE UNIVERSITY\COS30031 - GAMES PROGRAMMING\REPOSITORY\COS30031-102388915\08 - SPIKE - GAME STATE MANAGEMENT\ZORKISH\ZORKISH\DEBUG\SELECTADVENTURESTATE.OBJ|C:\USERS\GRUMP\ONEDRIVE - SWINBURNE UNIVERSITY\COS30031 - GAMES PROGRAMMING\REPOSITORY\COS30031-102388915\08 - SPIKE - GAME STATE MANAGEMENT\ZORKISH\ZORKISH\DEBUG\STATEMANAGER.OBJ|C:\USERS\GRUMP\ONEDRIVE - SWINBURNE UNIVERSITY\COS30031 - GAMES PROGRAMMING\REPOSITORY\COS30031-102388915\08 - SPIKE - GAME STATE MANAGEMENT\ZORKISH\ZORKISH\DEBUG\VIEWHALLOFFAMESTATE.OBJ|C:\USERS\GRUMP\ONEDRIVE - SWINBURNE UNIVERSITY\COS30031 - GAMES PROGRAMMING\REPOSITORY\COS30031-102388915\08 - SPIKE - GAME STATE MANAGEMENT\ZORKISH\ZORKISH\DEBUG\ZORKISH.OBJ
C:\PROGRAM FILES (X86)\WINDOWS KITS\10\LIB\10.0.18362.0\UM\X86\KERNEL32.LIB
C:\PROGRAM FILES (X86)\WINDOWS KITS\10\LIB\10.0.18362.0\UM\X86\USER32.LIB
C:\PROGRAM FILES (X86)\WINDOWS KITS\10\LIB\10.0.18362.0\UM\X86\GDI32.LIB
C:\PROGRAM FILES (X86)\WINDOWS KITS\10\LIB\10.0.18362.0\UM\X86\WINSPOOL.LIB
C:\PROGRAM FILES (X86)\WINDOWS KITS\10\LIB\10.0.18362.0\UM\X86\COMDLG32.LIB
C:\PROGRAM FILES (X86)\WINDOWS KITS\10\LIB\10.0.18362.0\UM\X86\ADVAPI32.LIB
C:\PROGRAM FILES (X86)\WINDOWS KITS\10\LIB\10.0.18362.0\UM\X86\SHELL32.LIB
C:\PROGRAM FILES (X86)\WINDOWS KITS\10\LIB\10.0.18362.0\UM\X86\OLE32.LIB
C:\PROGRAM FILES (X86)\WINDOWS KITS\10\LIB\10.0.18362.0\UM\X86\OLEAUT32.LIB
C:\PROGRAM FILES (X86)\WINDOWS KITS\10\LIB\10.0.18362.0\UM\X86\UUID.LIB
C:\PROGRAM FILES (X86)\WINDOWS KITS\10\LIB\10.0.18362.0\UM\X86\ODBC32.LIB
C:\PROGRAM FILES (X86)\WINDOWS KITS\10\LIB\10.0.18362.0\UM\X86\ODBCCP32.LIB
C:\USERS\GRUMP\ONEDRIVE - SWINBURNE UNIVERSITY\COS30031 - GAMES PROGRAMMING\REPOSITORY\COS30031-102388915\08 - SPIKE - GAME STATE MANAGEMENT\ZORKISH\ZORKISH\DEBUG\ABOUTSTATE.OBJ
C:\USERS\GRUMP\ONEDRIVE - SWINBURNE UNIVERSITY\COS30031 - GAMES PROGRAMMING\REPOSITORY\COS30031-102388915\08 - SPIKE - GAME STATE MANAGEMENT\ZORKISH\ZORKISH\DEBUG\GAMEPLAYSTATE.OBJ
C:\USERS\GRUMP\ONEDRIVE - SWINBURNE UNIVERSITY\COS30031 - GAMES PROGRAMMING\REPOSITORY\COS30031-102388915\08 - SPIKE - GAME STATE MANAGEMENT\ZORKISH\ZORKISH\DEBUG\HELPSTATE.OBJ
C:\USERS\GRUMP\ONEDRIVE - SWINBURNE UNIVERSITY\COS30031 - GAMES PROGRAMMING\REPOSITORY\COS30031-102388915\08 - SPIKE - GAME STATE MANAGEMENT\ZORKISH\ZORKISH\DEBUG\MAINMENUSTATE.OBJ
C:\USERS\GRUMP\ONEDRIVE - SWINBURNE UNIVERSITY\COS30031 - GAMES PROGRAMMING\REPOSITORY\COS30031-102388915\08 - SPIKE - GAME STATE MANAGEMENT\ZORKISH\ZORKISH\DEBUG\NEWHIGHSCORESTATE.OBJ
C:\USERS\GRUMP\ONEDRIVE - SWINBURNE UNIVERSITY\COS30031 - GAMES PROGRAMMING\REPOSITORY\COS30031-102388915\08 - SPIKE - GAME STATE MANAGEMENT\ZORKISH\ZORKISH\DEBUG\SELECTADVENTURESTATE.OBJ
C:\USERS\GRUMP\ONEDRIVE - SWINBURNE UNIVERSITY\COS30031 - GAMES PROGRAMMING\REPOSITORY\COS30031-102388915\08 - SPIKE - GAME STATE MANAGEMENT\ZORKISH\ZORKISH\DEBUG\STATEMANAGER.OBJ
C:\USERS\GRUMP\ONEDRIVE - SWINBURNE UNIVERSITY\COS30031 - GAMES PROGRAMMING\REPOSITORY\COS30031-102388915\08 - SPIKE - GAME STATE MANAGEMENT\ZORKISH\ZORKISH\DEBUG\VIEWHALLOFFAMESTATE.OBJ
C:\USERS\GRUMP\ONEDRIVE - SWINBURNE UNIVERSITY\COS30031 - GAMES PROGRAMMING\REPOSITORY\COS30031-102388915\08 - SPIKE - GAME STATE MANAGEMENT\ZORKISH\ZORKISH\DEBUG\ZORKISH.OBJ
C:\USERS\GRUMP\ONEDRIVE - SWINBURNE UNIVERSITY\COS30031 - GAMES PROGRAMMING\REPOSITORY\COS30031-102388915\08 - SPIKE - GAME STATE MANAGEMENT\ZORKISH\ZORKISH\DEBUG\ZORKISH.ILK
C:\WINDOWS\SYSTEM32\TZRES.DLL
C:\WINDOWS\GLOBALIZATION\SORTING\SORTDEFAULT.NLS
C:\PROGRAM FILES (X86)\MICROSOFT VISUAL STUDIO\2019\COMMUNITY\VC\TOOLS\MSVC\14.29.30133\LIB\X86\MSVCPRTD.LIB
C:\PROGRAM FILES (X86)\MICROSOFT VISUAL STUDIO\2019\COMMUNITY\VC\TOOLS\MSVC\14.29.30133\LIB\X86\MSVCRTD.LIB
C:\PROGRAM FILES (X86)\MICROSOFT VISUAL STUDIO\2019\COMMUNITY\VC\TOOLS\MSVC\14.29.30133\LIB\X86\OLDNAMES.LIB
C:\PROGRAM FILES (X86)\MICROSOFT VISUAL STUDIO\2019\COMMUNITY\VC\TOOLS\MSVC\14.29.30133\LIB\X86\VCRUNTIMED.LIB
C:\PROGRAM FILES (X86)\WINDOWS KITS\10\LIB\10.0.18362.0\UCRT\X86\UCRTD.LIB
^C:\USERS\GRUMP\ONEDRIVE - SWINBURNE UNIVERSITY\COS30031 - GAMES PROGRAMMING\REPOSITORY\COS30031-102388915\09 - SPIKE - GAME DATA STRUCTURES\ZORKISH\ZORKISH\DEBUG\ABOUTSTATE.OBJ|C:\USERS\GRUMP\ONEDRIVE - SWINBURNE UNIVERSITY\COS30031 - GAMES PROGRAMMING\REPOSITORY\COS30031-102388915\09 - SPIKE - GAME DATA STRUCTURES\ZORKISH\ZORKISH\DEBUG\BAG.OBJ|C:\USERS\GRUMP\ONEDRIVE - SWINBURNE UNIVERSITY\COS30031 - GAMES PROGRAMMING\REPOSITORY\COS30031-102388915\09 - SPIKE - GAME DATA STRUCTURES\ZORKISH\ZORKISH\DEBUG\COIN.OBJ|C:\USERS\GRUMP\ONEDRIVE - SWINBURNE UNIVERSITY\COS30031 - GAMES PROGRAMMING\REPOSITORY\COS30031-102388915\09 - SPIKE - GAME DATA STRUCTURES\ZORKISH\ZORKISH\DEBUG\GAMEPLAYSTATE.OBJ|C:\USERS\GRUMP\ONEDRIVE - SWINBURNE UNIVERSITY\COS30031 - GAMES PROGRAMMING\REPOSITORY\COS30031-102388915\09 - SPIKE - GAME DATA STRUCTURES\ZORKISH\ZORKISH\DEBUG\HELPSTATE.OBJ|C:\USERS\GRUMP\ONEDRIVE - SWINBURNE UNIVERSITY\COS30031 - GAMES PROGRAMMING\REPOSITORY\COS30031-102388915\09 - SPIKE - GAME DATA STRUCTURES\ZORKISH\ZORKISH\DEBUG\INVENTORY.OBJ|C:\USERS\GRUMP\ONEDRIVE - SWINBURNE UNIVERSITY\COS30031 - GAMES PROGRAMMING\REPOSITORY\COS30031-102388915\09 - SPIKE - GAME DATA STRUCTURES\ZORKISH\ZORKISH\DEBUG\MAINMENUSTATE.OBJ|C:\USERS\GRUMP\ONEDRIVE - SWINBURNE UNIVERSITY\COS30031 - GAMES PROGRAMMING\REPOSITORY\COS30031-102388915\09 - SPIKE - GAME DATA STRUCTURES\ZORKISH\ZORKISH\DEBUG\NEWHIGHSCORESTATE.OBJ|C:\USERS\GRUMP\ONEDRIVE - SWINBURNE UNIVERSITY\COS30031 - GAMES PROGRAMMING\REPOSITORY\COS30031-102388915\09 - SPIKE - GAME DATA STRUCTURES\ZORKISH\ZORKISH\DEBUG\PLAYER.OBJ|C:\USERS\GRUMP\ONEDRIVE - SWINBURNE UNIVERSITY\COS30031 - GAMES PROGRAMMING\REPOSITORY\COS30031-102388915\09 - SPIKE - GAME DATA STRUCTURES\ZORKISH\ZORKISH\DEBUG\SELECTADVENTURESTATE.OBJ|C:\USERS\GRUMP\ONEDRIVE - SWINBURNE UNIVERSITY\COS30031 - GAMES PROGRAMMING\REPOSITORY\COS30031-102388915\09 - SPIKE - GAME DATA STRUCTURES\ZORKISH\ZORKISH\DEBUG\STATEMANAGER.OBJ|C:\USERS\GRUMP\ONEDRIVE - SWINBURNE UNIVERSITY\COS30031 - GAMES PROGRAMMING\REPOSITORY\COS30031-102388915\09 - SPIKE - GAME DATA STRUCTURES\ZORKISH\ZORKISH\DEBUG\VIEWHALLOFFAMESTATE.OBJ|C:\USERS\GRUMP\ONEDRIVE - SWINBURNE UNIVERSITY\COS30031 - GAMES PROGRAMMING\REPOSITORY\COS30031-102388915\09 - SPIKE - GAME DATA STRUCTURES\ZORKISH\ZORKISH\DEBUG\ZORKISH.OBJ
C:\PROGRAM FILES (X86)\WINDOWS KITS\10\LIB\10.0.18362.0\UM\X86\KERNEL32.LIB
C:\PROGRAM FILES (X86)\WINDOWS KITS\10\LIB\10.0.18362.0\UM\X86\USER32.LIB
C:\PROGRAM FILES (X86)\WINDOWS KITS\10\LIB\10.0.18362.0\UM\X86\GDI32.LIB
C:\PROGRAM FILES (X86)\WINDOWS KITS\10\LIB\10.0.18362.0\UM\X86\WINSPOOL.LIB
C:\PROGRAM FILES (X86)\WINDOWS KITS\10\LIB\10.0.18362.0\UM\X86\COMDLG32.LIB
C:\PROGRAM FILES (X86)\WINDOWS KITS\10\LIB\10.0.18362.0\UM\X86\ADVAPI32.LIB
C:\PROGRAM FILES (X86)\WINDOWS KITS\10\LIB\10.0.18362.0\UM\X86\SHELL32.LIB
C:\PROGRAM FILES (X86)\WINDOWS KITS\10\LIB\10.0.18362.0\UM\X86\OLE32.LIB
C:\PROGRAM FILES (X86)\WINDOWS KITS\10\LIB\10.0.18362.0\UM\X86\OLEAUT32.LIB
C:\PROGRAM FILES (X86)\WINDOWS KITS\10\LIB\10.0.18362.0\UM\X86\UUID.LIB
C:\PROGRAM FILES (X86)\WINDOWS KITS\10\LIB\10.0.18362.0\UM\X86\ODBC32.LIB
C:\PROGRAM FILES (X86)\WINDOWS KITS\10\LIB\10.0.18362.0\UM\X86\ODBCCP32.LIB
C:\USERS\GRUMP\ONEDRIVE - SWINBURNE UNIVERSITY\COS30031 - GAMES PROGRAMMING\REPOSITORY\COS30031-102388915\09 - SPIKE - GAME DATA STRUCTURES\ZORKISH\ZORKISH\DEBUG\ABOUTSTATE.OBJ
C:\USERS\GRUMP\ONEDRIVE - SWINBURNE UNIVERSITY\COS30031 - GAMES PROGRAMMING\REPOSITORY\COS30031-102388915\09 - SPIKE - GAME DATA STRUCTURES\ZORKISH\ZORKISH\DEBUG\BAG.OBJ
C:\USERS\GRUMP\ONEDRIVE - SWINBURNE UNIVERSITY\COS30031 - GAMES PROGRAMMING\REPOSITORY\COS30031-102388915\09 - SPIKE - GAME DATA STRUCTURES\ZORKISH\ZORKISH\DEBUG\COIN.OBJ
C:\USERS\GRUMP\ONEDRIVE - SWINBURNE UNIVERSITY\COS30031 - GAMES PROGRAMMING\REPOSITORY\COS30031-102388915\09 - SPIKE - GAME DATA STRUCTURES\ZORKISH\ZORKISH\DEBUG\GAMEPLAYSTATE.OBJ
C:\USERS\GRUMP\ONEDRIVE - SWINBURNE UNIVERSITY\COS30031 - GAMES PROGRAMMING\REPOSITORY\COS30031-102388915\09 - SPIKE - GAME DATA STRUCTURES\ZORKISH\ZORKISH\DEBUG\HELPSTATE.OBJ
C:\USERS\GRUMP\ONEDRIVE - SWINBURNE UNIVERSITY\COS30031 - GAMES PROGRAMMING\REPOSITORY\COS30031-102388915\09 - SPIKE - GAME DATA STRUCTURES\ZORKISH\ZORKISH\DEBUG\INVENTORY.OBJ
C:\USERS\GRUMP\ONEDRIVE - SWINBURNE UNIVERSITY\COS30031 - GAMES PROGRAMMING\REPOSITORY\COS30031-102388915\09 - SPIKE - GAME DATA STRUCTURES\ZORKISH\ZORKISH\DEBUG\MAINMENUSTATE.OBJ
C:\USERS\GRUMP\ONEDRIVE - SWINBURNE UNIVERSITY\COS30031 - GAMES PROGRAMMING\REPOSITORY\COS30031-102388915\09 - SPIKE - GAME DATA STRUCTURES\ZORKISH\ZORKISH\DEBUG\NEWHIGHSCORESTATE.OBJ
C:\USERS\GRUMP\ONEDRIVE - SWINBURNE UNIVERSITY\COS30031 - GAMES PROGRAMMING\REPOSITORY\COS30031-102388915\09 - SPIKE - GAME DATA STRUCTURES\ZORKISH\ZORKISH\DEBUG\PLAYER.OBJ
C:\USERS\GRUMP\ONEDRIVE - SWINBURNE UNIVERSITY\COS30031 - GAMES PROGRAMMING\REPOSITORY\COS30031-102388915\09 - SPIKE - GAME DATA STRUCTURES\ZORKISH\ZORKISH\DEBUG\SELECTADVENTURESTATE.OBJ
C:\USERS\GRUMP\ONEDRIVE - SWINBURNE UNIVERSITY\COS30031 - GAMES PROGRAMMING\REPOSITORY\COS30031-102388915\09 - SPIKE - GAME DATA STRUCTURES\ZORKISH\ZORKISH\DEBUG\STATEMANAGER.OBJ
C:\USERS\GRUMP\ONEDRIVE - SWINBURNE UNIVERSITY\COS30031 - GAMES PROGRAMMING\REPOSITORY\COS30031-102388915\09 - SPIKE - GAME DATA STRUCTURES\ZORKISH\ZORKISH\DEBUG\VIEWHALLOFFAMESTATE.OBJ
C:\USERS\GRUMP\ONEDRIVE - SWINBURNE UNIVERSITY\COS30031 - GAMES PROGRAMMING\REPOSITORY\COS30031-102388915\09 - SPIKE - GAME DATA STRUCTURES\ZORKISH\ZORKISH\DEBUG\ZORKISH.OBJ
C:\USERS\GRUMP\ONEDRIVE - SWINBURNE UNIVERSITY\COS30031 - GAMES PROGRAMMING\REPOSITORY\COS30031-102388915\09 - SPIKE - GAME DATA STRUCTURES\ZORKISH\ZORKISH\DEBUG\ZORKISH.ILK
C:\WINDOWS\SYSTEM32\TZRES.DLL
C:\WINDOWS\GLOBALIZATION\SORTING\SORTDEFAULT.NLS
C:\PROGRAM FILES (X86)\MICROSOFT VISUAL STUDIO\2019\COMMUNITY\VC\TOOLS\MSVC\14.29.30133\LIB\X86\MSVCPRTD.LIB
C:\PROGRAM FILES (X86)\MICROSOFT VISUAL STUDIO\2019\COMMUNITY\VC\TOOLS\MSVC\14.29.30133\LIB\X86\MSVCRTD.LIB
C:\PROGRAM FILES (X86)\MICROSOFT VISUAL STUDIO\2019\COMMUNITY\VC\TOOLS\MSVC\14.29.30133\LIB\X86\OLDNAMES.LIB
C:\PROGRAM FILES (X86)\MICROSOFT VISUAL STUDIO\2019\COMMUNITY\VC\TOOLS\MSVC\14.29.30133\LIB\X86\VCRUNTIMED.LIB
C:\PROGRAM FILES (X86)\WINDOWS KITS\10\LIB\10.0.18362.0\UCRT\X86\UCRTD.LIB
C:\PROGRAM FILES (X86)\MICROSOFT VISUAL STUDIO\2019\COMMUNITY\VC\TOOLS\MSVC\14.29.30133\BIN\HOSTX86\X86\MSPDBSRV.EXE
^C:\USERS\GRUMP\ONEDRIVE - SWINBURNE UNIVERSITY\COS30031 - GAMES PROGRAMMING\REPOSITORY\COS30031-102388915\12 - SPIKE - COMMAND PATTERN\ZORKISH\ZORKISH\DEBUG\ABOUTSTATE.OBJ|C:\USERS\GRUMP\ONEDRIVE - SWINBURNE UNIVERSITY\COS30031 - GAMES PROGRAMMING\REPOSITORY\COS30031-102388915\12 - SPIKE - COMMAND PATTERN\ZORKISH\ZORKISH\DEBUG\BAG.OBJ|C:\USERS\GRUMP\ONEDRIVE - SWINBURNE UNIVERSITY\COS30031 - GAMES PROGRAMMING\REPOSITORY\COS30031-102388915\12 - SPIKE - COMMAND PATTERN\ZORKISH\ZORKISH\DEBUG\COIN.OBJ|C:\USERS\GRUMP\ONEDRIVE - SWINBURNE UNIVERSITY\COS30031 - GAMES PROGRAMMING\REPOSITORY\COS30031-102388915\12 - SPIKE - COMMAND PATTERN\ZORKISH\ZORKISH\DEBUG\COMMANDMANAGER.OBJ|C:\USERS\GRUMP\ONEDRIVE - SWINBURNE UNIVERSITY\COS30031 - GAMES PROGRAMMING\REPOSITORY\COS30031-102388915\12 - SPIKE - COMMAND PATTERN\ZORKISH\ZORKISH\DEBUG\COMMANDS.OBJ|C:\USERS\GRUMP\ONEDRIVE - SWINBURNE UNIVERSITY\COS30031 - GAMES PROGRAMMING\REPOSITORY\COS30031-102388915\12 - SPIKE - COMMAND PATTERN\ZORKISH\ZORKISH\DEBUG\GAMEPLAYSTATE.OBJ|C:\USERS\GRUMP\ONEDRIVE - SWINBURNE UNIVERSITY\COS30031 - GAMES PROGRAMMING\REPOSITORY\COS30031-102388915\12 - SPIKE - COMMAND PATTERN\ZORKISH\ZORKISH\DEBUG\GRAPH.OBJ|C:\USERS\GRUMP\ONEDRIVE - SWINBURNE UNIVERSITY\COS30031 - GAMES PROGRAMMING\REPOSITORY\COS30031-102388915\12 - SPIKE - COMMAND PATTERN\ZORKISH\ZORKISH\DEBUG\HELPSTATE.OBJ|C:\USERS\GRUMP\ONEDRIVE - SWINBURNE UNIVERSITY\COS30031 - GAMES PROGRAMMING\REPOSITORY\COS30031-102388915\12 - SPIKE - COMMAND PATTERN\ZORKISH\ZORKISH\DEBUG\INVENTORY.OBJ|C:\USERS\GRUMP\ONEDRIVE - SWINBURNE UNIVERSITY\COS30031 - GAMES PROGRAMMING\REPOSITORY\COS30031-102388915\12 - SPIKE - COMMAND PATTERN\ZORKISH\ZORKISH\DEBUG\ITEM.OBJ|C:\USERS\GRUMP\ONEDRIVE - SWINBURNE UNIVERSITY\COS30031 - GAMES PROGRAMMING\REPOSITORY\COS30031-102388915\12 - SPIKE - COMMAND PATTERN\ZORKISH\ZORKISH\DEBUG\MAINMENUSTATE.OBJ|C:\USERS\GRUMP\ONEDRIVE - SWINBURNE UNIVERSITY\COS30031 - GAMES PROGRAMMING\REPOSITORY\COS30031-102388915\12 - SPIKE - COMMAND PATTERN\ZORKISH\ZORKISH\DEBUG\NEWHIGHSCORESTATE.OBJ|C:\USERS\GRUMP\ONEDRIVE - SWINBURNE UNIVERSITY\COS30031 - GAMES PROGRAMMING\REPOSITORY\COS30031-102388915\12 - SPIKE - COMMAND PATTERN\ZORKISH\ZORKISH\DEBUG\PLAYER.OBJ|C:\USERS\GRUMP\ONEDRIVE - SWINBURNE UNIVERSITY\COS30031 - GAMES PROGRAMMING\REPOSITORY\COS30031-102388915\12 - SPIKE - COMMAND PATTERN\ZORKISH\ZORKISH\DEBUG\ROOM.OBJ|C:\USERS\GRUMP\ONEDRIVE - SWINBURNE UNIVERSITY\COS30031 - GAMES PROGRAMMING\REPOSITORY\COS30031-102388915\12 - SPIKE - COMMAND PATTERN\ZORKISH\ZORKISH\DEBUG\SELECTADVENTURESTATE.OBJ|C:\USERS\GRUMP\ONEDRIVE - SWINBURNE UNIVERSITY\COS30031 - GAMES PROGRAMMING\REPOSITORY\COS30031-102388915\12 - SPIKE - COMMAND PATTERN\ZORKISH\ZORKISH\DEBUG\STATEMANAGER.OBJ|C:\USERS\GRUMP\ONEDRIVE - SWINBURNE UNIVERSITY\COS30031 - GAMES PROGRAMMING\REPOSITORY\COS30031-102388915\12 - SPIKE - COMMAND PATTERN\ZORKISH\ZORKISH\DEBUG\VIEWHALLOFFAMESTATE.OBJ|C:\USERS\GRUMP\ONEDRIVE - SWINBURNE UNIVERSITY\COS30031 - GAMES PROGRAMMING\REPOSITORY\COS30031-102388915\12 - SPIKE - COMMAND PATTERN\ZORKISH\ZORKISH\DEBUG\ZORKISH.OBJ
C:\PROGRAM FILES (X86)\WINDOWS KITS\10\LIB\10.0.18362.0\UM\X86\KERNEL32.LIB
C:\PROGRAM FILES (X86)\WINDOWS KITS\10\LIB\10.0.18362.0\UM\X86\USER32.LIB
C:\PROGRAM FILES (X86)\WINDOWS KITS\10\LIB\10.0.18362.0\UM\X86\GDI32.LIB
C:\PROGRAM FILES (X86)\WINDOWS KITS\10\LIB\10.0.18362.0\UM\X86\WINSPOOL.LIB
C:\PROGRAM FILES (X86)\WINDOWS KITS\10\LIB\10.0.18362.0\UM\X86\COMDLG32.LIB
C:\PROGRAM FILES (X86)\WINDOWS KITS\10\LIB\10.0.18362.0\UM\X86\ADVAPI32.LIB
C:\PROGRAM FILES (X86)\WINDOWS KITS\10\LIB\10.0.18362.0\UM\X86\SHELL32.LIB
C:\PROGRAM FILES (X86)\WINDOWS KITS\10\LIB\10.0.18362.0\UM\X86\OLE32.LIB
C:\PROGRAM FILES (X86)\WINDOWS KITS\10\LIB\10.0.18362.0\UM\X86\OLEAUT32.LIB
C:\PROGRAM FILES (X86)\WINDOWS KITS\10\LIB\10.0.18362.0\UM\X86\UUID.LIB
C:\PROGRAM FILES (X86)\WINDOWS KITS\10\LIB\10.0.18362.0\UM\X86\ODBC32.LIB
C:\PROGRAM FILES (X86)\WINDOWS KITS\10\LIB\10.0.18362.0\UM\X86\ODBCCP32.LIB
C:\USERS\GRUMP\ONEDRIVE - SWINBURNE UNIVERSITY\COS30031 - GAMES PROGRAMMING\REPOSITORY\COS30031-102388915\12 - SPIKE - COMMAND PATTERN\ZORKISH\ZORKISH\DEBUG\ABOUTSTATE.OBJ
C:\USERS\GRUMP\ONEDRIVE - SWINBURNE UNIVERSITY\COS30031 - GAMES PROGRAMMING\REPOSITORY\COS30031-102388915\12 - SPIKE - COMMAND PATTERN\ZORKISH\ZORKISH\DEBUG\BAG.OBJ
C:\USERS\GRUMP\ONEDRIVE - SWINBURNE UNIVERSITY\COS30031 - GAMES PROGRAMMING\REPOSITORY\COS30031-102388915\12 - SPIKE - COMMAND PATTERN\ZORKISH\ZORKISH\DEBUG\COIN.OBJ
C:\USERS\GRUMP\ONEDRIVE - SWINBURNE UNIVERSITY\COS30031 - GAMES PROGRAMMING\REPOSITORY\COS30031-102388915\12 - SPIKE - COMMAND PATTERN\ZORKISH\ZORKISH\DEBUG\COMMANDMANAGER.OBJ
C:\USERS\GRUMP\ONEDRIVE - SWINBURNE UNIVERSITY\COS30031 - GAMES PROGRAMMING\REPOSITORY\COS30031-102388915\12 - SPIKE - COMMAND PATTERN\ZORKISH\ZORKISH\DEBUG\COMMANDS.OBJ
C:\USERS\GRUMP\ONEDRIVE - SWINBURNE UNIVERSITY\COS30031 - GAMES PROGRAMMING\REPOSITORY\COS30031-102388915\12 - SPIKE - COMMAND PATTERN\ZORKISH\ZORKISH\DEBUG\GAMEPLAYSTATE.OBJ
C:\USERS\GRUMP\ONEDRIVE - SWINBURNE UNIVERSITY\COS30031 - GAMES PROGRAMMING\REPOSITORY\COS30031-102388915\12 - SPIKE - COMMAND PATTERN\ZORKISH\ZORKISH\DEBUG\GRAPH.OBJ
C:\USERS\GRUMP\ONEDRIVE - SWINBURNE UNIVERSITY\COS30031 - GAMES PROGRAMMING\REPOSITORY\COS30031-102388915\12 - SPIKE - COMMAND PATTERN\ZORKISH\ZORKISH\DEBUG\HELPSTATE.OBJ
C:\USERS\GRUMP\ONEDRIVE - SWINBURNE UNIVERSITY\COS30031 - GAMES PROGRAMMING\REPOSITORY\COS30031-102388915\12 - SPIKE - COMMAND PATTERN\ZORKISH\ZORKISH\DEBUG\INVENTORY.OBJ
C:\USERS\GRUMP\ONEDRIVE - SWINBURNE UNIVERSITY\COS30031 - GAMES PROGRAMMING\REPOSITORY\COS30031-102388915\12 - SPIKE - COMMAND PATTERN\ZORKISH\ZORKISH\DEBUG\ITEM.OBJ
C:\USERS\GRUMP\ONEDRIVE - SWINBURNE UNIVERSITY\COS30031 - GAMES PROGRAMMING\REPOSITORY\COS30031-102388915\12 - SPIKE - COMMAND PATTERN\ZORKISH\ZORKISH\DEBUG\MAINMENUSTATE.OBJ
C:\USERS\GRUMP\ONEDRIVE - SWINBURNE UNIVERSITY\COS30031 - GAMES PROGRAMMING\REPOSITORY\COS30031-102388915\12 - SPIKE - COMMAND PATTERN\ZORKISH\ZORKISH\DEBUG\NEWHIGHSCORESTATE.OBJ
C:\USERS\GRUMP\ONEDRIVE - SWINBURNE UNIVERSITY\COS30031 - GAMES PROGRAMMING\REPOSITORY\COS30031-102388915\12 - SPIKE - COMMAND PATTERN\ZORKISH\ZORKISH\DEBUG\PLAYER.OBJ
C:\USERS\GRUMP\ONEDRIVE - SWINBURNE UNIVERSITY\COS30031 - GAMES PROGRAMMING\REPOSITORY\COS30031-102388915\12 - SPIKE - COMMAND PATTERN\ZORKISH\ZORKISH\DEBUG\ROOM.OBJ
C:\USERS\GRUMP\ONEDRIVE - SWINBURNE UNIVERSITY\COS30031 - GAMES PROGRAMMING\REPOSITORY\COS30031-102388915\12 - SPIKE - COMMAND PATTERN\ZORKISH\ZORKISH\DEBUG\SELECTADVENTURESTATE.OBJ
C:\USERS\GRUMP\ONEDRIVE - SWINBURNE UNIVERSITY\COS30031 - GAMES PROGRAMMING\REPOSITORY\COS30031-102388915\12 - SPIKE - COMMAND PATTERN\ZORKISH\ZORKISH\DEBUG\STATEMANAGER.OBJ
C:\USERS\GRUMP\ONEDRIVE - SWINBURNE UNIVERSITY\COS30031 - GAMES PROGRAMMING\REPOSITORY\COS30031-102388915\12 - SPIKE - COMMAND PATTERN\ZORKISH\ZORKISH\DEBUG\VIEWHALLOFFAMESTATE.OBJ
C:\USERS\GRUMP\ONEDRIVE - SWINBURNE UNIVERSITY\COS30031 - GAMES PROGRAMMING\REPOSITORY\COS30031-102388915\12 - SPIKE - COMMAND PATTERN\ZORKISH\ZORKISH\DEBUG\ZORKISH.OBJ
C:\USERS\GRUMP\ONEDRIVE - SWINBURNE UNIVERSITY\COS30031 - GAMES PROGRAMMING\REPOSITORY\COS30031-102388915\12 - SPIKE - COMMAND PATTERN\ZORKISH\ZORKISH\DEBUG\ZORKISH.ILK
C:\WINDOWS\SYSTEM32\TZRES.DLL
C:\WINDOWS\GLOBALIZATION\SORTING\SORTDEFAULT.NLS
C:\PROGRAM FILES (X86)\MICROSOFT VISUAL STUDIO\2019\COMMUNITY\VC\TOOLS\MSVC\14.29.30133\LIB\X86\MSVCPRTD.LIB
C:\PROGRAM FILES (X86)\MICROSOFT VISUAL STUDIO\2019\COMMUNITY\VC\TOOLS\MSVC\14.29.30133\LIB\X86\MSVCRTD.LIB
C:\PROGRAM FILES (X86)\MICROSOFT VISUAL STUDIO\2019\COMMUNITY\VC\TOOLS\MSVC\14.29.30133\LIB\X86\OLDNAMES.LIB
C:\PROGRAM FILES (X86)\MICROSOFT VISUAL STUDIO\2019\COMMUNITY\VC\TOOLS\MSVC\14.29.30133\LIB\X86\VCRUNTIMED.LIB
C:\PROGRAM FILES (X86)\WINDOWS KITS\10\LIB\10.0.18362.0\UCRT\X86\UCRTD.LIB
C:\PROGRAM FILES (X86)\MICROSOFT VISUAL STUDIO\2019\COMMUNITY\VC\TOOLS\MSVC\14.29.30133\BIN\HOSTX86\X86\CVTRES.EXE
C:\PROGRAM FILES (X86)\MICROSOFT VISUAL STUDIO\2019\COMMUNITY\VC\TOOLS\MSVC\14.29.30133\BIN\HOSTX86\X86\MSPDBSRV.EXE
^C:\USERS\GRUMP\ONEDRIVE - SWINBURNE UNIVERSITY\COS30031 - GAMES PROGRAMMING\REPOSITORY\COS30031-102388915\13 - SPIKE - COMPOSITE AND COMPONENT PATTERNS\ZORKISH\ZORKISH\DEBUG\ABOUTSTATE.OBJ|C:\USERS\GRUMP\ONEDRIVE - SWINBURNE UNIVERSITY\COS30031 - GAMES PROGRAMMING\REPOSITORY\COS30031-102388915\13 - SPIKE - COMPOSITE AND COMPONENT PATTERNS\ZORKISH\ZORKISH\DEBUG\BAG.OBJ|C:\USERS\GRUMP\ONEDRIVE - SWINBURNE UNIVERSITY\COS30031 - GAMES PROGRAMMING\REPOSITORY\COS30031-102388915\13 - SPIKE - COMPOSITE AND COMPONENT PATTERNS\ZORKISH\ZORKISH\DEBUG\COIN.OBJ|C:\USERS\GRUMP\ONEDRIVE - SWINBURNE UNIVERSITY\COS30031 - GAMES PROGRAMMING\REPOSITORY\COS30031-102388915\13 - SPIKE - COMPOSITE AND COMPONENT PATTERNS\ZORKISH\ZORKISH\DEBUG\COMMANDMANAGER.OBJ|C:\USERS\GRUMP\ONEDRIVE - SWINBURNE UNIVERSITY\COS30031 - GAMES PROGRAMMING\REPOSITORY\COS30031-102388915\13 - SPIKE - COMPOSITE AND COMPONENT PATTERNS\ZORKISH\ZORKISH\DEBUG\COMMANDS.OBJ|C:\USERS\GRUMP\ONEDRIVE - SWINBURNE UNIVERSITY\COS30031 - GAMES PROGRAMMING\REPOSITORY\COS30031-102388915\13 - SPIKE - COMPOSITE AND COMPONENT PATTERNS\ZORKISH\ZORKISH\DEBUG\COMPONENTMANAGER.OBJ|C:\USERS\GRUMP\ONEDRIVE - SWINBURNE UNIVERSITY\COS30031 - GAMES PROGRAMMING\REPOSITORY\COS30031-102388915\13 - SPIKE - COMPOSITE AND COMPONENT PATTERNS\ZORKISH\ZORKISH\DEBUG\COMPONENTS.OBJ|C:\USERS\GRUMP\ONEDRIVE - SWINBURNE UNIVERSITY\COS30031 - GAMES PROGRAMMING\REPOSITORY\COS30031-102388915\13 - SPIKE - COMPOSITE AND COMPONENT PATTERNS\ZORKISH\ZORKISH\DEBUG\ENTITIES.OBJ|C:\USERS\GRUMP\ONEDRIVE - SWINBURNE UNIVERSITY\COS30031 - GAMES PROGRAMMING\REPOSITORY\COS30031-102388915\13 - SPIKE - COMPOSITE AND COMPONENT PATTERNS\ZORKISH\ZORKISH\DEBUG\GAMEPLAYSTATE.OBJ|C:\USERS\GRUMP\ONEDRIVE - SWINBURNE UNIVERSITY\COS30031 - GAMES PROGRAMMING\REPOSITORY\COS30031-102388915\13 - SPIKE - COMPOSITE AND COMPONENT PATTERNS\ZORKISH\ZORKISH\DEBUG\GRAPH.OBJ|C:\USERS\GRUMP\ONEDRIVE - SWINBURNE UNIVERSITY\COS30031 - GAMES PROGRAMMING\REPOSITORY\COS30031-102388915\13 - SPIKE - COMPOSITE AND COMPONENT PATTERNS\ZORKISH\ZORKISH\DEBUG\HELPSTATE.OBJ|C:\USERS\GRUMP\ONEDRIVE - SWINBURNE UNIVERSITY\COS30031 - GAMES PROGRAMMING\REPOSITORY\COS30031-102388915\13 - SPIKE - COMPOSITE AND COMPONENT PATTERNS\ZORKISH\ZORKISH\DEBUG\INVENTORY.OBJ|C:\USERS\GRUMP\ONEDRIVE - SWINBURNE UNIVERSITY\COS30031 - GAMES PROGRAMMING\REPOSITORY\COS30031-102388915\13 - SPIKE - COMPOSITE AND COMPONENT PATTERNS\ZORKISH\ZORKISH\DEBUG\ITEM.OBJ|C:\USERS\GRUMP\ONEDRIVE - SWINBURNE UNIVERSITY\COS30031 - GAMES PROGRAMMING\REPOSITORY\COS30031-102388915\13 - SPIKE - COMPOSITE AND COMPONENT PATTERNS\ZORKISH\ZORKISH\DEBUG\MAINMENUSTATE.OBJ|C:\USERS\GRUMP\ONEDRIVE - SWINBURNE UNIVERSITY\COS30031 - GAMES PROGRAMMING\REPOSITORY\COS30031-102388915\13 - SPIKE - COMPOSITE AND COMPONENT PATTERNS\ZORKISH\ZORKISH\DEBUG\NEWHIGHSCORESTATE.OBJ|C:\USERS\GRUMP\ONEDRIVE - SWINBURNE UNIVERSITY\COS30031 - GAMES PROGRAMMING\REPOSITORY\COS30031-102388915\13 - SPIKE - COMPOSITE AND COMPONENT PATTERNS\ZORKISH\ZORKISH\DEBUG\PLAYER.OBJ|C:\USERS\GRUMP\ONEDRIVE - SWINBURNE UNIVERSITY\COS30031 - GAMES PROGRAMMING\REPOSITORY\COS30031-102388915\13 - SPIKE - COMPOSITE AND COMPONENT PATTERNS\ZORKISH\ZORKISH\DEBUG\ROOM.OBJ|C:\USERS\GRUMP\ONEDRIVE - SWINBURNE UNIVERSITY\COS30031 - GAMES PROGRAMMING\REPOSITORY\COS30031-102388915\13 - SPIKE - COMPOSITE AND COMPONENT PATTERNS\ZORKISH\ZORKISH\DEBUG\SELECTADVENTURESTATE.OBJ|C:\USERS\GRUMP\ONEDRIVE - SWINBURNE UNIVERSITY\COS30031 - GAMES PROGRAMMING\REPOSITORY\COS30031-102388915\13 - SPIKE - COMPOSITE AND COMPONENT PATTERNS\ZORKISH\ZORKISH\DEBUG\STATEMANAGER.OBJ|C:\USERS\GRUMP\ONEDRIVE - SWINBURNE UNIVERSITY\COS30031 - GAMES PROGRAMMING\REPOSITORY\COS30031-102388915\13 - SPIKE - COMPOSITE AND COMPONENT PATTERNS\ZORKISH\ZORKISH\DEBUG\VIEWHALLOFFAMESTATE.OBJ|C:\USERS\GRUMP\ONEDRIVE - SWINBURNE UNIVERSITY\COS30031 - GAMES PROGRAMMING\REPOSITORY\COS30031-102388915\13 - SPIKE - COMPOSITE AND COMPONENT PATTERNS\ZORKISH\ZORKISH\DEBUG\ZORKISH.OBJ
C:\PROGRAM FILES (X86)\WINDOWS KITS\10\LIB\10.0.18362.0\UM\X86\KERNEL32.LIB
C:\PROGRAM FILES (X86)\WINDOWS KITS\10\LIB\10.0.18362.0\UM\X86\USER32.LIB
C:\PROGRAM FILES (X86)\WINDOWS KITS\10\LIB\10.0.18362.0\UM\X86\GDI32.LIB
C:\PROGRAM FILES (X86)\WINDOWS KITS\10\LIB\10.0.18362.0\UM\X86\WINSPOOL.LIB
C:\PROGRAM FILES (X86)\WINDOWS KITS\10\LIB\10.0.18362.0\UM\X86\COMDLG32.LIB
C:\PROGRAM FILES (X86)\WINDOWS KITS\10\LIB\10.0.18362.0\UM\X86\ADVAPI32.LIB
C:\PROGRAM FILES (X86)\WINDOWS KITS\10\LIB\10.0.18362.0\UM\X86\SHELL32.LIB
C:\PROGRAM FILES (X86)\WINDOWS KITS\10\LIB\10.0.18362.0\UM\X86\OLE32.LIB
C:\PROGRAM FILES (X86)\WINDOWS KITS\10\LIB\10.0.18362.0\UM\X86\OLEAUT32.LIB
C:\PROGRAM FILES (X86)\WINDOWS KITS\10\LIB\10.0.18362.0\UM\X86\UUID.LIB
C:\PROGRAM FILES (X86)\WINDOWS KITS\10\LIB\10.0.18362.0\UM\X86\ODBC32.LIB
C:\PROGRAM FILES (X86)\WINDOWS KITS\10\LIB\10.0.18362.0\UM\X86\ODBCCP32.LIB
C:\USERS\GRUMP\ONEDRIVE - SWINBURNE UNIVERSITY\COS30031 - GAMES PROGRAMMING\REPOSITORY\COS30031-102388915\13 - SPIKE - COMPOSITE AND COMPONENT PATTERNS\ZORKISH\ZORKISH\DEBUG\ABOUTSTATE.OBJ
C:\USERS\GRUMP\ONEDRIVE - SWINBURNE UNIVERSITY\COS30031 - GAMES PROGRAMMING\REPOSITORY\COS30031-102388915\13 - SPIKE - COMPOSITE AND COMPONENT PATTERNS\ZORKISH\ZORKISH\DEBUG\BAG.OBJ
C:\USERS\GRUMP\ONEDRIVE - SWINBURNE UNIVERSITY\COS30031 - GAMES PROGRAMMING\REPOSITORY\COS30031-102388915\13 - SPIKE - COMPOSITE AND COMPONENT PATTERNS\ZORKISH\ZORKISH\DEBUG\COIN.OBJ
C:\USERS\GRUMP\ONEDRIVE - SWINBURNE UNIVERSITY\COS30031 - GAMES PROGRAMMING\REPOSITORY\COS30031-102388915\13 - SPIKE - COMPOSITE AND COMPONENT PATTERNS\ZORKISH\ZORKISH\DEBUG\COMMANDMANAGER.OBJ
C:\USERS\GRUMP\ONEDRIVE - SWINBURNE UNIVERSITY\COS30031 - GAMES PROGRAMMING\REPOSITORY\COS30031-102388915\13 - SPIKE - COMPOSITE AND COMPONENT PATTERNS\ZORKISH\ZORKISH\DEBUG\COMMANDS.OBJ
C:\USERS\GRUMP\ONEDRIVE - SWINBURNE UNIVERSITY\COS30031 - GAMES PROGRAMMING\REPOSITORY\COS30031-102388915\13 - SPIKE - COMPOSITE AND COMPONENT PATTERNS\ZORKISH\ZORKISH\DEBUG\COMPONENTMANAGER.OBJ
C:\USERS\GRUMP\ONEDRIVE - SWINBURNE UNIVERSITY\COS30031 - GAMES PROGRAMMING\REPOSITORY\COS30031-102388915\13 - SPIKE - COMPOSITE AND COMPONENT PATTERNS\ZORKISH\ZORKISH\DEBUG\COMPONENTS.OBJ
C:\USERS\GRUMP\ONEDRIVE - SWINBURNE UNIVERSITY\COS30031 - GAMES PROGRAMMING\REPOSITORY\COS30031-102388915\13 - SPIKE - COMPOSITE AND COMPONENT PATTERNS\ZORKISH\ZORKISH\DEBUG\ENTITIES.OBJ
C:\USERS\GRUMP\ONEDRIVE - SWINBURNE UNIVERSITY\COS30031 - GAMES PROGRAMMING\REPOSITORY\COS30031-102388915\13 - SPIKE - COMPOSITE AND COMPONENT PATTERNS\ZORKISH\ZORKISH\DEBUG\GAMEPLAYSTATE.OBJ
C:\USERS\GRUMP\ONEDRIVE - SWINBURNE UNIVERSITY\COS30031 - GAMES PROGRAMMING\REPOSITORY\COS30031-102388915\13 - SPIKE - COMPOSITE AND COMPONENT PATTERNS\ZORKISH\ZORKISH\DEBUG\GRAPH.OBJ
C:\USERS\GRUMP\ONEDRIVE - SWINBURNE UNIVERSITY\COS30031 - GAMES PROGRAMMING\REPOSITORY\COS30031-102388915\13 - SPIKE - COMPOSITE AND COMPONENT PATTERNS\ZORKISH\ZORKISH\DEBUG\HELPSTATE.OBJ
C:\USERS\GRUMP\ONEDRIVE - SWINBURNE UNIVERSITY\COS30031 - GAMES PROGRAMMING\REPOSITORY\COS30031-102388915\13 - SPIKE - COMPOSITE AND COMPONENT PATTERNS\ZORKISH\ZORKISH\DEBUG\INVENTORY.OBJ
C:\USERS\GRUMP\ONEDRIVE - SWINBURNE UNIVERSITY\COS30031 - GAMES PROGRAMMING\REPOSITORY\COS30031-102388915\13 - SPIKE - COMPOSITE AND COMPONENT PATTERNS\ZORKISH\ZORKISH\DEBUG\ITEM.OBJ
C:\USERS\GRUMP\ONEDRIVE - SWINBURNE UNIVERSITY\COS30031 - GAMES PROGRAMMING\REPOSITORY\COS30031-102388915\13 - SPIKE - COMPOSITE AND COMPONENT PATTERNS\ZORKISH\ZORKISH\DEBUG\MAINMENUSTATE.OBJ
C:\USERS\GRUMP\ONEDRIVE - SWINBURNE UNIVERSITY\COS30031 - GAMES PROGRAMMING\REPOSITORY\COS30031-102388915\13 - SPIKE - COMPOSITE AND COMPONENT PATTERNS\ZORKISH\ZORKISH\DEBUG\NEWHIGHSCORESTATE.OBJ
C:\USERS\GRUMP\ONEDRIVE - SWINBURNE UNIVERSITY\COS30031 - GAMES PROGRAMMING\REPOSITORY\COS30031-102388915\13 - SPIKE - COMPOSITE AND COMPONENT PATTERNS\ZORKISH\ZORKISH\DEBUG\PLAYER.OBJ
C:\USERS\GRUMP\ONEDRIVE - SWINBURNE UNIVERSITY\COS30031 - GAMES PROGRAMMING\REPOSITORY\COS30031-102388915\13 - SPIKE - COMPOSITE AND COMPONENT PATTERNS\ZORKISH\ZORKISH\DEBUG\ROOM.OBJ
C:\USERS\GRUMP\ONEDRIVE - SWINBURNE UNIVERSITY\COS30031 - GAMES PROGRAMMING\REPOSITORY\COS30031-102388915\13 - SPIKE - COMPOSITE AND COMPONENT PATTERNS\ZORKISH\ZORKISH\DEBUG\SELECTADVENTURESTATE.OBJ
C:\USERS\GRUMP\ONEDRIVE - SWINBURNE UNIVERSITY\COS30031 - GAMES PROGRAMMING\REPOSITORY\COS30031-102388915\13 - SPIKE - COMPOSITE AND COMPONENT PATTERNS\ZORKISH\ZORKISH\DEBUG\STATEMANAGER.OBJ
C:\USERS\GRUMP\ONEDRIVE - SWINBURNE UNIVERSITY\COS30031 - GAMES PROGRAMMING\REPOSITORY\COS30031-102388915\13 - SPIKE - COMPOSITE AND COMPONENT PATTERNS\ZORKISH\ZORKISH\DEBUG\VIEWHALLOFFAMESTATE.OBJ
C:\USERS\GRUMP\ONEDRIVE - SWINBURNE UNIVERSITY\COS30031 - GAMES PROGRAMMING\REPOSITORY\COS30031-102388915\13 - SPIKE - COMPOSITE AND COMPONENT PATTERNS\ZORKISH\ZORKISH\DEBUG\ZORKISH.OBJ
C:\USERS\GRUMP\ONEDRIVE - SWINBURNE UNIVERSITY\COS30031 - GAMES PROGRAMMING\REPOSITORY\COS30031-102388915\13 - SPIKE - COMPOSITE AND COMPONENT PATTERNS\ZORKISH\ZORKISH\DEBUG\ZORKISH.ILK
C:\WINDOWS\SYSTEM32\TZRES.DLL
C:\WINDOWS\GLOBALIZATION\SORTING\SORTDEFAULT.NLS
C:\PROGRAM FILES (X86)\MICROSOFT VISUAL STUDIO\2019\COMMUNITY\VC\TOOLS\MSVC\14.29.30133\LIB\X86\MSVCPRTD.LIB
C:\PROGRAM FILES (X86)\MICROSOFT VISUAL STUDIO\2019\COMMUNITY\VC\TOOLS\MSVC\14.29.30133\LIB\X86\MSVCRTD.LIB
C:\PROGRAM FILES (X86)\MICROSOFT VISUAL STUDIO\2019\COMMUNITY\VC\TOOLS\MSVC\14.29.30133\LIB\X86\OLDNAMES.LIB
C:\PROGRAM FILES (X86)\MICROSOFT VISUAL STUDIO\2019\COMMUNITY\VC\TOOLS\MSVC\14.29.30133\LIB\X86\VCRUNTIMED.LIB
C:\PROGRAM FILES (X86)\WINDOWS KITS\10\LIB\10.0.18362.0\UCRT\X86\UCRTD.LIB
