^C:\USERS\GRUMP\ONEDRIVE - SWINBURNE UNIVERSITY\COS30031 - GAMES PROGRAMMING\REPOSITORY\COS30031-102388915\03 - SPIKE - GRIDWORLD\GRIDWORLD\GRIDWORLD\DEBUG\GRIDWORLD.OBJ|C:\USERS\GRUMP\ONEDRIVE - SWINBURNE UNIVERSITY\COS30031 - GAMES PROGRAMMING\REPOSITORY\COS30031-102388915\03 - SPIKE - GRIDWORLD\GRIDWORLD\GRIDWORLD\DEBUG\SOURCE.OBJ
C:\PROGRAM FILES (X86)\WINDOWS KITS\10\LIB\10.0.18362.0\UM\X86\KERNEL32.LIB
C:\PROGRAM FILES (X86)\WINDOWS KITS\10\LIB\10.0.18362.0\UM\X86\USER32.LIB
C:\PROGRAM FILES (X86)\WINDOWS KITS\10\LIB\10.0.18362.0\UM\X86\GDI32.LIB
C:\PROGRAM FILES (X86)\WINDOWS KITS\10\LIB\10.0.18362.0\UM\X86\WINSPOOL.LIB
C:\PROGRAM FILES (X86)\WINDOWS KITS\10\LIB\10.0.18362.0\UM\X86\COMDLG32.LIB
C:\PROGRAM FILES (X86)\WINDOWS KITS\10\LIB\10.0.18362.0\UM\X86\ADVAPI32.LIB
C:\PROGRAM FILES (X86)\WINDOWS KITS\10\LIB\10.0.18362.0\UM\X86\SHELL32.LIB
C:\PROGRAM FILES (X86)\WINDOWS KITS\10\LIB\10.0.18362.0\UM\X86\OLE32.LIB
C:\PROGRAM FILES (X86)\WINDOWS KITS\10\LIB\10.0.18362.0\UM\X86\OLEAUT32.LIB
C:\PROGRAM FILES (X86)\WINDOWS KITS\10\LIB\10.0.18362.0\UM\X86\UUID.LIB
C:\PROGRAM FILES (X86)\WINDOWS KITS\10\LIB\10.0.18362.0\UM\X86\ODBC32.LIB
C:\PROGRAM FILES (X86)\WINDOWS KITS\10\LIB\10.0.18362.0\UM\X86\ODBCCP32.LIB
C:\USERS\GRUMP\ONEDRIVE - SWINBURNE UNIVERSITY\COS30031 - GAMES PROGRAMMING\REPOSITORY\COS30031-102388915\03 - SPIKE - GRIDWORLD\GRIDWORLD\GRIDWORLD\DEBUG\GRIDWORLD.OBJ
C:\USERS\GRUMP\ONEDRIVE - SWINBURNE UNIVERSITY\COS30031 - GAMES PROGRAMMING\REPOSITORY\COS30031-102388915\03 - SPIKE - GRIDWORLD\GRIDWORLD\GRIDWORLD\DEBUG\SOURCE.OBJ
C:\USERS\GRUMP\ONEDRIVE - SWINBURNE UNIVERSITY\COS30031 - GAMES PROGRAMMING\REPOSITORY\COS30031-102388915\03 - SPIKE - GRIDWORLD\GRIDWORLD\GRIDWORLD\DEBUG\GRIDWORLD.ILK
C:\WINDOWS\SYSTEM32\TZRES.DLL
C:\WINDOWS\GLOBALIZATION\SORTING\SORTDEFAULT.NLS
C:\PROGRAM FILES (X86)\MICROSOFT VISUAL STUDIO\2019\COMMUNITY\VC\TOOLS\MSVC\14.29.30133\LIB\X86\MSVCPRTD.LIB
C:\PROGRAM FILES (X86)\MICROSOFT VISUAL STUDIO\2019\COMMUNITY\VC\TOOLS\MSVC\14.29.30133\LIB\X86\MSVCRTD.LIB
C:\PROGRAM FILES (X86)\MICROSOFT VISUAL STUDIO\2019\COMMUNITY\VC\TOOLS\MSVC\14.29.30133\LIB\X86\OLDNAMES.LIB
C:\PROGRAM FILES (X86)\MICROSOFT VISUAL STUDIO\2019\COMMUNITY\VC\TOOLS\MSVC\14.29.30133\LIB\X86\VCRUNTIMED.LIB
C:\PROGRAM FILES (X86)\WINDOWS KITS\10\LIB\10.0.18362.0\UCRT\X86\UCRTD.LIB
C:\PROGRAM FILES (X86)\MICROSOFT VISUAL STUDIO\2019\COMMUNITY\VC\TOOLS\MSVC\14.29.30133\BIN\HOSTX86\X86\CVTRES.EXE
C:\PROGRAM FILES (X86)\MICROSOFT VISUAL STUDIO\2019\COMMUNITY\VC\TOOLS\MSVC\14.29.30133\BIN\HOSTX86\X86\MSPDBSRV.EXE
