^C:\USERS\GRUMP\ONEDRIVE - SWINBURNE UNIVERSITY\COS30031 - GAMES PROGRAMMING\REPOSITORY\COS30031-102388915\08 - SPIKE - GAME STATE MANAGEMENT\ZORKISH\ZORKISH\DEBUG\ABOUTSTATE.OBJ|C:\USERS\GRUMP\ONEDRIVE - SWINBURNE UNIVERSITY\COS30031 - GAMES PROGRAMMING\REPOSITORY\COS30031-102388915\08 - SPIKE - GAME STATE MANAGEMENT\ZORKISH\ZORKISH\DEBUG\GAMEPLAYSTATE.OBJ|C:\USERS\GRUMP\ONEDRIVE - SWINBURNE UNIVERSITY\COS30031 - GAMES PROGRAMMING\REPOSITORY\COS30031-102388915\08 - SPIKE - GAME STATE MANAGEMENT\ZORKISH\ZORKISH\DEBUG\HELPSTATE.OBJ|C:\USERS\GRUMP\ONEDRIVE - SWINBURNE UNIVERSITY\COS30031 - GAMES PROGRAMMING\REPOSITORY\COS30031-102388915\08 - SPIKE - GAME STATE MANAGEMENT\ZORKISH\ZORKISH\DEBUG\MAINMENUSTATE.OBJ|C:\USERS\GRUMP\ONEDRIVE - SWINBURNE UNIVERSITY\COS30031 - GAMES PROGRAMMING\REPOSITORY\COS30031-102388915\08 - SPIKE - GAME STATE MANAGEMENT\ZORKISH\ZORKISH\DEBUG\NEWHIGHSCORESTATE.OBJ|C:\USERS\GRUMP\ONEDRIVE - SWINBURNE UNIVERSITY\COS30031 - GAMES PROGRAMMING\REPOSITORY\COS30031-102388915\08 - SPIKE - GAME STATE MANAGEMENT\ZORKISH\ZORKISH\DEBUG\SELECTADVENTURESTATE.OBJ|C:\USERS\GRUMP\ONEDRIVE - SWINBURNE UNIVERSITY\COS30031 - GAMES PROGRAMMING\REPOSITORY\COS30031-102388915\08 - SPIKE - GAME STATE MANAGEMENT\ZORKISH\ZORKISH\DEBUG\STATEMANAGER.OBJ|C:\USERS\GRUMP\ONEDRIVE - SWINBURNE UNIVERSITY\COS30031 - GAMES PROGRAMMING\REPOSITORY\COS30031-102388915\08 - SPIKE - GAME STATE MANAGEMENT\ZORKISH\ZORKISH\DEBUG\VIEWHALLOFFAMESTATE.OBJ|C:\USERS\GRUMP\ONEDRIVE - SWINBURNE UNIVERSITY\COS30031 - GAMES PROGRAMMING\REPOSITORY\COS30031-102388915\08 - SPIKE - GAME STATE MANAGEMENT\ZORKISH\ZORKISH\DEBUG\ZORKISH.OBJ
/OUT:"C:\USERS\GRUMP\ONEDRIVE - SWINBURNE UNIVERSITY\COS30031 - GAMES PROGRAMMING\REPOSITORY\COS30031-102388915\08 - SPIKE - GAME STATE MANAGEMENT\ZORKISH\DEBUG\ZORKISH.EXE" /INCREMENTAL /ILK:"DEBUG\ZORKISH.ILK" /NOLOGO KERNEL32.LIB USER32.LIB GDI32.LIB WINSPOOL.LIB COMDLG32.LIB ADVAPI32.LIB SHELL32.LIB OLE32.LIB OLEAUT32.LIB UUID.LIB ODBC32.LIB ODBCCP32.LIB /MANIFEST /MANIFESTUAC:"level='asInvoker' uiAccess='false'" /manifest:embed /DEBUG /PDB:"C:\USERS\GRUMP\ONEDRIVE - SWINBURNE UNIVERSITY\COS30031 - GAMES PROGRAMMING\REPOSITORY\COS30031-102388915\08 - SPIKE - GAME STATE MANAGEMENT\ZORKISH\DEBUG\ZORKISH.PDB" /SUBSYSTEM:CONSOLE /TLBID:1 /DYNAMICBASE /NXCOMPAT /IMPLIB:"C:\USERS\GRUMP\ONEDRIVE - SWINBURNE UNIVERSITY\COS30031 - GAMES PROGRAMMING\REPOSITORY\COS30031-102388915\08 - SPIKE - GAME STATE MANAGEMENT\ZORKISH\DEBUG\ZORKISH.LIB" /MACHINE:X86 DEBUG\ABOUTSTATE.OBJ
DEBUG\GAMEPLAYSTATE.OBJ
DEBUG\HELPSTATE.OBJ
DEBUG\MAINMENUSTATE.OBJ
DEBUG\NEWHIGHSCORESTATE.OBJ
DEBUG\SELECTADVENTURESTATE.OBJ
DEBUG\STATEMANAGER.OBJ
DEBUG\VIEWHALLOFFAMESTATE.OBJ
DEBUG\ZORKISH.OBJ
^C:\USERS\GRUMP\ONEDRIVE - SWINBURNE UNIVERSITY\COS30031 - GAMES PROGRAMMING\REPOSITORY\COS30031-102388915\09 - SPIKE - GAME DATA STRUCTURES\ZORKISH\ZORKISH\DEBUG\ABOUTSTATE.OBJ|C:\USERS\GRUMP\ONEDRIVE - SWINBURNE UNIVERSITY\COS30031 - GAMES PROGRAMMING\REPOSITORY\COS30031-102388915\09 - SPIKE - GAME DATA STRUCTURES\ZORKISH\ZORKISH\DEBUG\BAG.OBJ|C:\USERS\GRUMP\ONEDRIVE - SWINBURNE UNIVERSITY\COS30031 - GAMES PROGRAMMING\REPOSITORY\COS30031-102388915\09 - SPIKE - GAME DATA STRUCTURES\ZORKISH\ZORKISH\DEBUG\COIN.OBJ|C:\USERS\GRUMP\ONEDRIVE - SWINBURNE UNIVERSITY\COS30031 - GAMES PROGRAMMING\REPOSITORY\COS30031-102388915\09 - SPIKE - GAME DATA STRUCTURES\ZORKISH\ZORKISH\DEBUG\GAMEPLAYSTATE.OBJ|C:\USERS\GRUMP\ONEDRIVE - SWINBURNE UNIVERSITY\COS30031 - GAMES PROGRAMMING\REPOSITORY\COS30031-102388915\09 - SPIKE - GAME DATA STRUCTURES\ZORKISH\ZORKISH\DEBUG\HELPSTATE.OBJ|C:\USERS\GRUMP\ONEDRIVE - SWINBURNE UNIVERSITY\COS30031 - GAMES PROGRAMMING\REPOSITORY\COS30031-102388915\09 - SPIKE - GAME DATA STRUCTURES\ZORKISH\ZORKISH\DEBUG\INVENTORY.OBJ|C:\USERS\GRUMP\ONEDRIVE - SWINBURNE UNIVERSITY\COS30031 - GAMES PROGRAMMING\REPOSITORY\COS30031-102388915\09 - SPIKE - GAME DATA STRUCTURES\ZORKISH\ZORKISH\DEBUG\MAINMENUSTATE.OBJ|C:\USERS\GRUMP\ONEDRIVE - SWINBURNE UNIVERSITY\COS30031 - GAMES PROGRAMMING\REPOSITORY\COS30031-102388915\09 - SPIKE - GAME DATA STRUCTURES\ZORKISH\ZORKISH\DEBUG\NEWHIGHSCORESTATE.OBJ|C:\USERS\GRUMP\ONEDRIVE - SWINBURNE UNIVERSITY\COS30031 - GAMES PROGRAMMING\REPOSITORY\COS30031-102388915\09 - SPIKE - GAME DATA STRUCTURES\ZORKISH\ZORKISH\DEBUG\PLAYER.OBJ|C:\USERS\GRUMP\ONEDRIVE - SWINBURNE UNIVERSITY\COS30031 - GAMES PROGRAMMING\REPOSITORY\COS30031-102388915\09 - SPIKE - GAME DATA STRUCTURES\ZORKISH\ZORKISH\DEBUG\SELECTADVENTURESTATE.OBJ|C:\USERS\GRUMP\ONEDRIVE - SWINBURNE UNIVERSITY\COS30031 - GAMES PROGRAMMING\REPOSITORY\COS30031-102388915\09 - SPIKE - GAME DATA STRUCTURES\ZORKISH\ZORKISH\DEBUG\STATEMANAGER.OBJ|C:\USERS\GRUMP\ONEDRIVE - SWINBURNE UNIVERSITY\COS30031 - GAMES PROGRAMMING\REPOSITORY\COS30031-102388915\09 - SPIKE - GAME DATA STRUCTURES\ZORKISH\ZORKISH\DEBUG\VIEWHALLOFFAMESTATE.OBJ|C:\USERS\GRUMP\ONEDRIVE - SWINBURNE UNIVERSITY\COS30031 - GAMES PROGRAMMING\REPOSITORY\COS30031-102388915\09 - SPIKE - GAME DATA STRUCTURES\ZORKISH\ZORKISH\DEBUG\ZORKISH.OBJ
/OUT:"C:\USERS\GRUMP\ONEDRIVE - SWINBURNE UNIVERSITY\COS30031 - GAMES PROGRAMMING\REPOSITORY\COS30031-102388915\09 - SPIKE - GAME DATA STRUCTURES\ZORKISH\DEBUG\ZORKISH.EXE" /INCREMENTAL /ILK:"DEBUG\ZORKISH.ILK" /NOLOGO KERNEL32.LIB USER32.LIB GDI32.LIB WINSPOOL.LIB COMDLG32.LIB ADVAPI32.LIB SHELL32.LIB OLE32.LIB OLEAUT32.LIB UUID.LIB ODBC32.LIB ODBCCP32.LIB /MANIFEST /MANIFESTUAC:"level='asInvoker' uiAccess='false'" /manifest:embed /DEBUG /PDB:"C:\USERS\GRUMP\ONEDRIVE - SWINBURNE UNIVERSITY\COS30031 - GAMES PROGRAMMING\REPOSITORY\COS30031-102388915\09 - SPIKE - GAME DATA STRUCTURES\ZORKISH\DEBUG\ZORKISH.PDB" /SUBSYSTEM:CONSOLE /TLBID:1 /DYNAMICBASE /NXCOMPAT /IMPLIB:"C:\USERS\GRUMP\ONEDRIVE - SWINBURNE UNIVERSITY\COS30031 - GAMES PROGRAMMING\REPOSITORY\COS30031-102388915\09 - SPIKE - GAME DATA STRUCTURES\ZORKISH\DEBUG\ZORKISH.LIB" /MACHINE:X86 DEBUG\ABOUTSTATE.OBJ
DEBUG\BAG.OBJ
DEBUG\COIN.OBJ
DEBUG\GAMEPLAYSTATE.OBJ
DEBUG\HELPSTATE.OBJ
DEBUG\INVENTORY.OBJ
DEBUG\MAINMENUSTATE.OBJ
DEBUG\NEWHIGHSCORESTATE.OBJ
DEBUG\PLAYER.OBJ
DEBUG\SELECTADVENTURESTATE.OBJ
DEBUG\STATEMANAGER.OBJ
DEBUG\VIEWHALLOFFAMESTATE.OBJ
DEBUG\ZORKISH.OBJ
^C:\USERS\GRUMP\ONEDRIVE - SWINBURNE UNIVERSITY\COS30031 - GAMES PROGRAMMING\REPOSITORY\COS30031-102388915\12 - SPIKE - COMMAND PATTERN\ZORKISH\ZORKISH\DEBUG\ABOUTSTATE.OBJ|C:\USERS\GRUMP\ONEDRIVE - SWINBURNE UNIVERSITY\COS30031 - GAMES PROGRAMMING\REPOSITORY\COS30031-102388915\12 - SPIKE - COMMAND PATTERN\ZORKISH\ZORKISH\DEBUG\BAG.OBJ|C:\USERS\GRUMP\ONEDRIVE - SWINBURNE UNIVERSITY\COS30031 - GAMES PROGRAMMING\REPOSITORY\COS30031-102388915\12 - SPIKE - COMMAND PATTERN\ZORKISH\ZORKISH\DEBUG\COIN.OBJ|C:\USERS\GRUMP\ONEDRIVE - SWINBURNE UNIVERSITY\COS30031 - GAMES PROGRAMMING\REPOSITORY\COS30031-102388915\12 - SPIKE - COMMAND PATTERN\ZORKISH\ZORKISH\DEBUG\COMMANDMANAGER.OBJ|C:\USERS\GRUMP\ONEDRIVE - SWINBURNE UNIVERSITY\COS30031 - GAMES PROGRAMMING\REPOSITORY\COS30031-102388915\12 - SPIKE - COMMAND PATTERN\ZORKISH\ZORKISH\DEBUG\COMMANDS.OBJ|C:\USERS\GRUMP\ONEDRIVE - SWINBURNE UNIVERSITY\COS30031 - GAMES PROGRAMMING\REPOSITORY\COS30031-102388915\12 - SPIKE - COMMAND PATTERN\ZORKISH\ZORKISH\DEBUG\GAMEPLAYSTATE.OBJ|C:\USERS\GRUMP\ONEDRIVE - SWINBURNE UNIVERSITY\COS30031 - GAMES PROGRAMMING\REPOSITORY\COS30031-102388915\12 - SPIKE - COMMAND PATTERN\ZORKISH\ZORKISH\DEBUG\GRAPH.OBJ|C:\USERS\GRUMP\ONEDRIVE - SWINBURNE UNIVERSITY\COS30031 - GAMES PROGRAMMING\REPOSITORY\COS30031-102388915\12 - SPIKE - COMMAND PATTERN\ZORKISH\ZORKISH\DEBUG\HELPSTATE.OBJ|C:\USERS\GRUMP\ONEDRIVE - SWINBURNE UNIVERSITY\COS30031 - GAMES PROGRAMMING\REPOSITORY\COS30031-102388915\12 - SPIKE - COMMAND PATTERN\ZORKISH\ZORKISH\DEBUG\INVENTORY.OBJ|C:\USERS\GRUMP\ONEDRIVE - SWINBURNE UNIVERSITY\COS30031 - GAMES PROGRAMMING\REPOSITORY\COS30031-102388915\12 - SPIKE - COMMAND PATTERN\ZORKISH\ZORKISH\DEBUG\ITEM.OBJ|C:\USERS\GRUMP\ONEDRIVE - SWINBURNE UNIVERSITY\COS30031 - GAMES PROGRAMMING\REPOSITORY\COS30031-102388915\12 - SPIKE - COMMAND PATTERN\ZORKISH\ZORKISH\DEBUG\MAINMENUSTATE.OBJ|C:\USERS\GRUMP\ONEDRIVE - SWINBURNE UNIVERSITY\COS30031 - GAMES PROGRAMMING\REPOSITORY\COS30031-102388915\12 - SPIKE - COMMAND PATTERN\ZORKISH\ZORKISH\DEBUG\NEWHIGHSCORESTATE.OBJ|C:\USERS\GRUMP\ONEDRIVE - SWINBURNE UNIVERSITY\COS30031 - GAMES PROGRAMMING\REPOSITORY\COS30031-102388915\12 - SPIKE - COMMAND PATTERN\ZORKISH\ZORKISH\DEBUG\PLAYER.OBJ|C:\USERS\GRUMP\ONEDRIVE - SWINBURNE UNIVERSITY\COS30031 - GAMES PROGRAMMING\REPOSITORY\COS30031-102388915\12 - SPIKE - COMMAND PATTERN\ZORKISH\ZORKISH\DEBUG\ROOM.OBJ|C:\USERS\GRUMP\ONEDRIVE - SWINBURNE UNIVERSITY\COS30031 - GAMES PROGRAMMING\REPOSITORY\COS30031-102388915\12 - SPIKE - COMMAND PATTERN\ZORKISH\ZORKISH\DEBUG\SELECTADVENTURESTATE.OBJ|C:\USERS\GRUMP\ONEDRIVE - SWINBURNE UNIVERSITY\COS30031 - GAMES PROGRAMMING\REPOSITORY\COS30031-102388915\12 - SPIKE - COMMAND PATTERN\ZORKISH\ZORKISH\DEBUG\STATEMANAGER.OBJ|C:\USERS\GRUMP\ONEDRIVE - SWINBURNE UNIVERSITY\COS30031 - GAMES PROGRAMMING\REPOSITORY\COS30031-102388915\12 - SPIKE - COMMAND PATTERN\ZORKISH\ZORKISH\DEBUG\VIEWHALLOFFAMESTATE.OBJ|C:\USERS\GRUMP\ONEDRIVE - SWINBURNE UNIVERSITY\COS30031 - GAMES PROGRAMMING\REPOSITORY\COS30031-102388915\12 - SPIKE - COMMAND PATTERN\ZORKISH\ZORKISH\DEBUG\ZORKISH.OBJ
/OUT:"C:\USERS\GRUMP\ONEDRIVE - SWINBURNE UNIVERSITY\COS30031 - GAMES PROGRAMMING\REPOSITORY\COS30031-102388915\12 - SPIKE - COMMAND PATTERN\ZORKISH\DEBUG\ZORKISH.EXE" /INCREMENTAL /ILK:"DEBUG\ZORKISH.ILK" /NOLOGO KERNEL32.LIB USER32.LIB GDI32.LIB WINSPOOL.LIB COMDLG32.LIB ADVAPI32.LIB SHELL32.LIB OLE32.LIB OLEAUT32.LIB UUID.LIB ODBC32.LIB ODBCCP32.LIB /MANIFEST /MANIFESTUAC:"level='asInvoker' uiAccess='false'" /manifest:embed /DEBUG /PDB:"C:\USERS\GRUMP\ONEDRIVE - SWINBURNE UNIVERSITY\COS30031 - GAMES PROGRAMMING\REPOSITORY\COS30031-102388915\12 - SPIKE - COMMAND PATTERN\ZORKISH\DEBUG\ZORKISH.PDB" /SUBSYSTEM:CONSOLE /TLBID:1 /DYNAMICBASE /NXCOMPAT /IMPLIB:"C:\USERS\GRUMP\ONEDRIVE - SWINBURNE UNIVERSITY\COS30031 - GAMES PROGRAMMING\REPOSITORY\COS30031-102388915\12 - SPIKE - COMMAND PATTERN\ZORKISH\DEBUG\ZORKISH.LIB" /MACHINE:X86 DEBUG\ABOUTSTATE.OBJ
DEBUG\BAG.OBJ
DEBUG\COIN.OBJ
DEBUG\COMMANDMANAGER.OBJ
DEBUG\COMMANDS.OBJ
DEBUG\GAMEPLAYSTATE.OBJ
DEBUG\GRAPH.OBJ
DEBUG\HELPSTATE.OBJ
DEBUG\INVENTORY.OBJ
DEBUG\ITEM.OBJ
DEBUG\MAINMENUSTATE.OBJ
DEBUG\NEWHIGHSCORESTATE.OBJ
DEBUG\PLAYER.OBJ
DEBUG\ROOM.OBJ
DEBUG\SELECTADVENTURESTATE.OBJ
DEBUG\STATEMANAGER.OBJ
DEBUG\VIEWHALLOFFAMESTATE.OBJ
DEBUG\ZORKISH.OBJ
^C:\USERS\GRUMP\ONEDRIVE - SWINBURNE UNIVERSITY\COS30031 - GAMES PROGRAMMING\REPOSITORY\COS30031-102388915\13 - SPIKE - COMPOSITE AND COMPONENT PATTERNS\ZORKISH\ZORKISH\DEBUG\ABOUTSTATE.OBJ|C:\USERS\GRUMP\ONEDRIVE - SWINBURNE UNIVERSITY\COS30031 - GAMES PROGRAMMING\REPOSITORY\COS30031-102388915\13 - SPIKE - COMPOSITE AND COMPONENT PATTERNS\ZORKISH\ZORKISH\DEBUG\BAG.OBJ|C:\USERS\GRUMP\ONEDRIVE - SWINBURNE UNIVERSITY\COS30031 - GAMES PROGRAMMING\REPOSITORY\COS30031-102388915\13 - SPIKE - COMPOSITE AND COMPONENT PATTERNS\ZORKISH\ZORKISH\DEBUG\COIN.OBJ|C:\USERS\GRUMP\ONEDRIVE - SWINBURNE UNIVERSITY\COS30031 - GAMES PROGRAMMING\REPOSITORY\COS30031-102388915\13 - SPIKE - COMPOSITE AND COMPONENT PATTERNS\ZORKISH\ZORKISH\DEBUG\COMMANDMANAGER.OBJ|C:\USERS\GRUMP\ONEDRIVE - SWINBURNE UNIVERSITY\COS30031 - GAMES PROGRAMMING\REPOSITORY\COS30031-102388915\13 - SPIKE - COMPOSITE AND COMPONENT PATTERNS\ZORKISH\ZORKISH\DEBUG\COMMANDS.OBJ|C:\USERS\GRUMP\ONEDRIVE - SWINBURNE UNIVERSITY\COS30031 - GAMES PROGRAMMING\REPOSITORY\COS30031-102388915\13 - SPIKE - COMPOSITE AND COMPONENT PATTERNS\ZORKISH\ZORKISH\DEBUG\COMPONENTMANAGER.OBJ|C:\USERS\GRUMP\ONEDRIVE - SWINBURNE UNIVERSITY\COS30031 - GAMES PROGRAMMING\REPOSITORY\COS30031-102388915\13 - SPIKE - COMPOSITE AND COMPONENT PATTERNS\ZORKISH\ZORKISH\DEBUG\COMPONENTS.OBJ|C:\USERS\GRUMP\ONEDRIVE - SWINBURNE UNIVERSITY\COS30031 - GAMES PROGRAMMING\REPOSITORY\COS30031-102388915\13 - SPIKE - COMPOSITE AND COMPONENT PATTERNS\ZORKISH\ZORKISH\DEBUG\ENTITIES.OBJ|C:\USERS\GRUMP\ONEDRIVE - SWINBURNE UNIVERSITY\COS30031 - GAMES PROGRAMMING\REPOSITORY\COS30031-102388915\13 - SPIKE - COMPOSITE AND COMPONENT PATTERNS\ZORKISH\ZORKISH\DEBUG\GAMEPLAYSTATE.OBJ|C:\USERS\GRUMP\ONEDRIVE - SWINBURNE UNIVERSITY\COS30031 - GAMES PROGRAMMING\REPOSITORY\COS30031-102388915\13 - SPIKE - COMPOSITE AND COMPONENT PATTERNS\ZORKISH\ZORKISH\DEBUG\GRAPH.OBJ|C:\USERS\GRUMP\ONEDRIVE - SWINBURNE UNIVERSITY\COS30031 - GAMES PROGRAMMING\REPOSITORY\COS30031-102388915\13 - SPIKE - COMPOSITE AND COMPONENT PATTERNS\ZORKISH\ZORKISH\DEBUG\HELPSTATE.OBJ|C:\USERS\GRUMP\ONEDRIVE - SWINBURNE UNIVERSITY\COS30031 - GAMES PROGRAMMING\REPOSITORY\COS30031-102388915\13 - SPIKE - COMPOSITE AND COMPONENT PATTERNS\ZORKISH\ZORKISH\DEBUG\INVENTORY.OBJ|C:\USERS\GRUMP\ONEDRIVE - SWINBURNE UNIVERSITY\COS30031 - GAMES PROGRAMMING\REPOSITORY\COS30031-102388915\13 - SPIKE - COMPOSITE AND COMPONENT PATTERNS\ZORKISH\ZORKISH\DEBUG\ITEM.OBJ|C:\USERS\GRUMP\ONEDRIVE - SWINBURNE UNIVERSITY\COS30031 - GAMES PROGRAMMING\REPOSITORY\COS30031-102388915\13 - SPIKE - COMPOSITE AND COMPONENT PATTERNS\ZORKISH\ZORKISH\DEBUG\MAINMENUSTATE.OBJ|C:\USERS\GRUMP\ONEDRIVE - SWINBURNE UNIVERSITY\COS30031 - GAMES PROGRAMMING\REPOSITORY\COS30031-102388915\13 - SPIKE - COMPOSITE AND COMPONENT PATTERNS\ZORKISH\ZORKISH\DEBUG\NEWHIGHSCORESTATE.OBJ|C:\USERS\GRUMP\ONEDRIVE - SWINBURNE UNIVERSITY\COS30031 - GAMES PROGRAMMING\REPOSITORY\COS30031-102388915\13 - SPIKE - COMPOSITE AND COMPONENT PATTERNS\ZORKISH\ZORKISH\DEBUG\PLAYER.OBJ|C:\USERS\GRUMP\ONEDRIVE - SWINBURNE UNIVERSITY\COS30031 - GAMES PROGRAMMING\REPOSITORY\COS30031-102388915\13 - SPIKE - COMPOSITE AND COMPONENT PATTERNS\ZORKISH\ZORKISH\DEBUG\ROOM.OBJ|C:\USERS\GRUMP\ONEDRIVE - SWINBURNE UNIVERSITY\COS30031 - GAMES PROGRAMMING\REPOSITORY\COS30031-102388915\13 - SPIKE - COMPOSITE AND COMPONENT PATTERNS\ZORKISH\ZORKISH\DEBUG\SELECTADVENTURESTATE.OBJ|C:\USERS\GRUMP\ONEDRIVE - SWINBURNE UNIVERSITY\COS30031 - GAMES PROGRAMMING\REPOSITORY\COS30031-102388915\13 - SPIKE - COMPOSITE AND COMPONENT PATTERNS\ZORKISH\ZORKISH\DEBUG\STATEMANAGER.OBJ|C:\USERS\GRUMP\ONEDRIVE - SWINBURNE UNIVERSITY\COS30031 - GAMES PROGRAMMING\REPOSITORY\COS30031-102388915\13 - SPIKE - COMPOSITE AND COMPONENT PATTERNS\ZORKISH\ZORKISH\DEBUG\VIEWHALLOFFAMESTATE.OBJ|C:\USERS\GRUMP\ONEDRIVE - SWINBURNE UNIVERSITY\COS30031 - GAMES PROGRAMMING\REPOSITORY\COS30031-102388915\13 - SPIKE - COMPOSITE AND COMPONENT PATTERNS\ZORKISH\ZORKISH\DEBUG\ZORKISH.OBJ
/OUT:"C:\USERS\GRUMP\ONEDRIVE - SWINBURNE UNIVERSITY\COS30031 - GAMES PROGRAMMING\REPOSITORY\COS30031-102388915\13 - SPIKE - COMPOSITE AND COMPONENT PATTERNS\ZORKISH\DEBUG\ZORKISH.EXE" /INCREMENTAL /ILK:"DEBUG\ZORKISH.ILK" /NOLOGO KERNEL32.LIB USER32.LIB GDI32.LIB WINSPOOL.LIB COMDLG32.LIB ADVAPI32.LIB SHELL32.LIB OLE32.LIB OLEAUT32.LIB UUID.LIB ODBC32.LIB ODBCCP32.LIB /MANIFEST /MANIFESTUAC:"level='asInvoker' uiAccess='false'" /manifest:embed /DEBUG /PDB:"C:\USERS\GRUMP\ONEDRIVE - SWINBURNE UNIVERSITY\COS30031 - GAMES PROGRAMMING\REPOSITORY\COS30031-102388915\13 - SPIKE - COMPOSITE AND COMPONENT PATTERNS\ZORKISH\DEBUG\ZORKISH.PDB" /SUBSYSTEM:CONSOLE /TLBID:1 /DYNAMICBASE /NXCOMPAT /IMPLIB:"C:\USERS\GRUMP\ONEDRIVE - SWINBURNE UNIVERSITY\COS30031 - GAMES PROGRAMMING\REPOSITORY\COS30031-102388915\13 - SPIKE - COMPOSITE AND COMPONENT PATTERNS\ZORKISH\DEBUG\ZORKISH.LIB" /MACHINE:X86 DEBUG\ABOUTSTATE.OBJ
DEBUG\BAG.OBJ
DEBUG\COIN.OBJ
DEBUG\COMMANDMANAGER.OBJ
DEBUG\COMMANDS.OBJ
DEBUG\COMPONENTMANAGER.OBJ
DEBUG\COMPONENTS.OBJ
DEBUG\ENTITIES.OBJ
DEBUG\GAMEPLAYSTATE.OBJ
DEBUG\GRAPH.OBJ
DEBUG\HELPSTATE.OBJ
DEBUG\INVENTORY.OBJ
DEBUG\ITEM.OBJ
DEBUG\MAINMENUSTATE.OBJ
DEBUG\NEWHIGHSCORESTATE.OBJ
DEBUG\PLAYER.OBJ
DEBUG\ROOM.OBJ
DEBUG\SELECTADVENTURESTATE.OBJ
DEBUG\STATEMANAGER.OBJ
DEBUG\VIEWHALLOFFAMESTATE.OBJ
DEBUG\ZORKISH.OBJ
^C:\USERS\GRUMP\ONEDRIVE - SWINBURNE UNIVERSITY\COS30031 - GAMES PROGRAMMING\REPOSITORY\COS30031-102388915\19 - SPIKE - MESSAGING_ ANNOUCEMENTS AND BLACKBOARDS\ZORKISH\ZORKISH\DEBUG\ABOUTSTATE.OBJ|C:\USERS\GRUMP\ONEDRIVE - SWINBURNE UNIVERSITY\COS30031 - GAMES PROGRAMMING\REPOSITORY\COS30031-102388915\19 - SPIKE - MESSAGING_ ANNOUCEMENTS AND BLACKBOARDS\ZORKISH\ZORKISH\DEBUG\COMBINATIONLOCKCOMPONENT.OBJ|C:\USERS\GRUMP\ONEDRIVE - SWINBURNE UNIVERSITY\COS30031 - GAMES PROGRAMMING\REPOSITORY\COS30031-102388915\19 - SPIKE - MESSAGING_ ANNOUCEMENTS AND BLACKBOARDS\ZORKISH\ZORKISH\DEBUG\COMMANDMANAGER.OBJ|C:\USERS\GRUMP\ONEDRIVE - SWINBURNE UNIVERSITY\COS30031 - GAMES PROGRAMMING\REPOSITORY\COS30031-102388915\19 - SPIKE - MESSAGING_ ANNOUCEMENTS AND BLACKBOARDS\ZORKISH\ZORKISH\DEBUG\COMMANDS.OBJ|C:\USERS\GRUMP\ONEDRIVE - SWINBURNE UNIVERSITY\COS30031 - GAMES PROGRAMMING\REPOSITORY\COS30031-102388915\19 - SPIKE - MESSAGING_ ANNOUCEMENTS AND BLACKBOARDS\ZORKISH\ZORKISH\DEBUG\COMPONENTMANAGER.OBJ|C:\USERS\GRUMP\ONEDRIVE - SWINBURNE UNIVERSITY\COS30031 - GAMES PROGRAMMING\REPOSITORY\COS30031-102388915\19 - SPIKE - MESSAGING_ ANNOUCEMENTS AND BLACKBOARDS\ZORKISH\ZORKISH\DEBUG\DAMAGECOMPONENT.OBJ|C:\USERS\GRUMP\ONEDRIVE - SWINBURNE UNIVERSITY\COS30031 - GAMES PROGRAMMING\REPOSITORY\COS30031-102388915\19 - SPIKE - MESSAGING_ ANNOUCEMENTS AND BLACKBOARDS\ZORKISH\ZORKISH\DEBUG\ENTITY.OBJ|C:\USERS\GRUMP\ONEDRIVE - SWINBURNE UNIVERSITY\COS30031 - GAMES PROGRAMMING\REPOSITORY\COS30031-102388915\19 - SPIKE - MESSAGING_ ANNOUCEMENTS AND BLACKBOARDS\ZORKISH\ZORKISH\DEBUG\GAMEPLAYSTATE.OBJ|C:\USERS\GRUMP\ONEDRIVE - SWINBURNE UNIVERSITY\COS30031 - GAMES PROGRAMMING\REPOSITORY\COS30031-102388915\19 - SPIKE - MESSAGING_ ANNOUCEMENTS AND BLACKBOARDS\ZORKISH\ZORKISH\DEBUG\GRAPH.OBJ|C:\USERS\GRUMP\ONEDRIVE - SWINBURNE UNIVERSITY\COS30031 - GAMES PROGRAMMING\REPOSITORY\COS30031-102388915\19 - SPIKE - MESSAGING_ ANNOUCEMENTS AND BLACKBOARDS\ZORKISH\ZORKISH\DEBUG\HEALTHCOMPONENT.OBJ|C:\USERS\GRUMP\ONEDRIVE - SWINBURNE UNIVERSITY\COS30031 - GAMES PROGRAMMING\REPOSITORY\COS30031-102388915\19 - SPIKE - MESSAGING_ ANNOUCEMENTS AND BLACKBOARDS\ZORKISH\ZORKISH\DEBUG\HELPSTATE.OBJ|C:\USERS\GRUMP\ONEDRIVE - SWINBURNE UNIVERSITY\COS30031 - GAMES PROGRAMMING\REPOSITORY\COS30031-102388915\19 - SPIKE - MESSAGING_ ANNOUCEMENTS AND BLACKBOARDS\ZORKISH\ZORKISH\DEBUG\INVENTORY.OBJ|C:\USERS\GRUMP\ONEDRIVE - SWINBURNE UNIVERSITY\COS30031 - GAMES PROGRAMMING\REPOSITORY\COS30031-102388915\19 - SPIKE - MESSAGING_ ANNOUCEMENTS AND BLACKBOARDS\ZORKISH\ZORKISH\DEBUG\ITEM.OBJ|C:\USERS\GRUMP\ONEDRIVE - SWINBURNE UNIVERSITY\COS30031 - GAMES PROGRAMMING\REPOSITORY\COS30031-102388915\19 - SPIKE - MESSAGING_ ANNOUCEMENTS AND BLACKBOARDS\ZORKISH\ZORKISH\DEBUG\KEYCOMPONENT.OBJ|C:\USERS\GRUMP\ONEDRIVE - SWINBURNE UNIVERSITY\COS30031 - GAMES PROGRAMMING\REPOSITORY\COS30031-102388915\19 - SPIKE - MESSAGING_ ANNOUCEMENTS AND BLACKBOARDS\ZORKISH\ZORKISH\DEBUG\KEYLOCKCOMPONENT.OBJ|C:\USERS\GRUMP\ONEDRIVE - SWINBURNE UNIVERSITY\COS30031 - GAMES PROGRAMMING\REPOSITORY\COS30031-102388915\19 - SPIKE - MESSAGING_ ANNOUCEMENTS AND BLACKBOARDS\ZORKISH\ZORKISH\DEBUG\MAINMENUSTATE.OBJ|C:\USERS\GRUMP\ONEDRIVE - SWINBURNE UNIVERSITY\COS30031 - GAMES PROGRAMMING\REPOSITORY\COS30031-102388915\19 - SPIKE - MESSAGING_ ANNOUCEMENTS AND BLACKBOARDS\ZORKISH\ZORKISH\DEBUG\MESSAGESYSTEM.OBJ|C:\USERS\GRUMP\ONEDRIVE - SWINBURNE UNIVERSITY\COS30031 - GAMES PROGRAMMING\REPOSITORY\COS30031-102388915\19 - SPIKE - MESSAGING_ ANNOUCEMENTS AND BLACKBOARDS\ZORKISH\ZORKISH\DEBUG\NEWHIGHSCORESTATE.OBJ|C:\USERS\GRUMP\ONEDRIVE - SWINBURNE UNIVERSITY\COS30031 - GAMES PROGRAMMING\REPOSITORY\COS30031-102388915\19 - SPIKE - MESSAGING_ ANNOUCEMENTS AND BLACKBOARDS\ZORKISH\ZORKISH\DEBUG\OPENABLECOMPONENT.OBJ|C:\USERS\GRUMP\ONEDRIVE - SWINBURNE UNIVERSITY\COS30031 - GAMES PROGRAMMING\REPOSITORY\COS30031-102388915\19 - SPIKE - MESSAGING_ ANNOUCEMENTS AND BLACKBOARDS\ZORKISH\ZORKISH\DEBUG\PLAYER.OBJ|C:\USERS\GRUMP\ONEDRIVE - SWINBURNE UNIVERSITY\COS30031 - GAMES PROGRAMMING\REPOSITORY\COS30031-102388915\19 - SPIKE - MESSAGING_ ANNOUCEMENTS AND BLACKBOARDS\ZORKISH\ZORKISH\DEBUG\ROOM.OBJ|C:\USERS\GRUMP\ONEDRIVE - SWINBURNE UNIVERSITY\COS30031 - GAMES PROGRAMMING\REPOSITORY\COS30031-102388915\19 - SPIKE - MESSAGING_ ANNOUCEMENTS AND BLACKBOARDS\ZORKISH\ZORKISH\DEBUG\SELECTADVENTURESTATE.OBJ|C:\USERS\GRUMP\ONEDRIVE - SWINBURNE UNIVERSITY\COS30031 - GAMES PROGRAMMING\REPOSITORY\COS30031-102388915\19 - SPIKE - MESSAGING_ ANNOUCEMENTS AND BLACKBOARDS\ZORKISH\ZORKISH\DEBUG\STATEMANAGER.OBJ|C:\USERS\GRUMP\ONEDRIVE - SWINBURNE UNIVERSITY\COS30031 - GAMES PROGRAMMING\REPOSITORY\COS30031-102388915\19 - SPIKE - MESSAGING_ ANNOUCEMENTS AND BLACKBOARDS\ZORKISH\ZORKISH\DEBUG\VIEWHALLOFFAMESTATE.OBJ|C:\USERS\GRUMP\ONEDRIVE - SWINBURNE UNIVERSITY\COS30031 - GAMES PROGRAMMING\REPOSITORY\COS30031-102388915\19 - SPIKE - MESSAGING_ ANNOUCEMENTS AND BLACKBOARDS\ZORKISH\ZORKISH\DEBUG\ZORKISH.OBJ
/OUT:"C:\USERS\GRUMP\ONEDRIVE - SWINBURNE UNIVERSITY\COS30031 - GAMES PROGRAMMING\REPOSITORY\COS30031-102388915\19 - SPIKE - MESSAGING_ ANNOUCEMENTS AND BLACKBOARDS\ZORKISH\DEBUG\ZORKISH.EXE" /INCREMENTAL /ILK:"DEBUG\ZORKISH.ILK" /NOLOGO KERNEL32.LIB USER32.LIB GDI32.LIB WINSPOOL.LIB COMDLG32.LIB ADVAPI32.LIB SHELL32.LIB OLE32.LIB OLEAUT32.LIB UUID.LIB ODBC32.LIB ODBCCP32.LIB /MANIFEST /MANIFESTUAC:"level='asInvoker' uiAccess='false'" /manifest:embed /DEBUG /PDB:"C:\USERS\GRUMP\ONEDRIVE - SWINBURNE UNIVERSITY\COS30031 - GAMES PROGRAMMING\REPOSITORY\COS30031-102388915\19 - SPIKE - MESSAGING_ ANNOUCEMENTS AND BLACKBOARDS\ZORKISH\DEBUG\ZORKISH.PDB" /SUBSYSTEM:CONSOLE /TLBID:1 /DYNAMICBASE /NXCOMPAT /IMPLIB:"C:\USERS\GRUMP\ONEDRIVE - SWINBURNE UNIVERSITY\COS30031 - GAMES PROGRAMMING\REPOSITORY\COS30031-102388915\19 - SPIKE - MESSAGING_ ANNOUCEMENTS AND BLACKBOARDS\ZORKISH\DEBUG\ZORKISH.LIB" /MACHINE:X86 DEBUG\ABOUTSTATE.OBJ
DEBUG\COMBINATIONLOCKCOMPONENT.OBJ
DEBUG\COMMANDMANAGER.OBJ
DEBUG\COMMANDS.OBJ
DEBUG\COMPONENTMANAGER.OBJ
DEBUG\DAMAGECOMPONENT.OBJ
DEBUG\ENTITY.OBJ
DEBUG\GAMEPLAYSTATE.OBJ
DEBUG\GRAPH.OBJ
DEBUG\HEALTHCOMPONENT.OBJ
DEBUG\HELPSTATE.OBJ
DEBUG\INVENTORY.OBJ
DEBUG\ITEM.OBJ
DEBUG\KEYCOMPONENT.OBJ
DEBUG\KEYLOCKCOMPONENT.OBJ
DEBUG\MAINMENUSTATE.OBJ
DEBUG\MESSAGESYSTEM.OBJ
DEBUG\NEWHIGHSCORESTATE.OBJ
DEBUG\OPENABLECOMPONENT.OBJ
DEBUG\PLAYER.OBJ
DEBUG\ROOM.OBJ
DEBUG\SELECTADVENTURESTATE.OBJ
DEBUG\STATEMANAGER.OBJ
DEBUG\VIEWHALLOFFAMESTATE.OBJ
DEBUG\ZORKISH.OBJ
