^C:\USERS\GRUMP\ONEDRIVE - SWINBURNE UNIVERSITY\COS30031 - GAMES PROGRAMMING\REPOSITORY\COS30031-102388915\15 - LAB - SDL2 CONCEPTS\SDL_LIBRARY\SDL_LIBRARY\SOURCE.CPP|C:\USERS\GRUMP\ONEDRIVE - SWINBURNE UNIVERSITY\COS30031 - GAMES PROGRAMMING\REPOSITORY\COS30031-102388915\15 - LAB - SDL2 CONCEPTS\SDL_LIBRARY\SDL_LIBRARY\TEST1.CPP
C:\USERS\GRUMP\ONEDRIVE - SWINBURNE UNIVERSITY\COS30031 - GAMES PROGRAMMING\REPOSITORY\COS30031-102388915\15 - LAB - SDL2 CONCEPTS\SDL_LIBRARY\SDL_LIBRARY\DEBUG\VC142.PDB
C:\USERS\GRUMP\ONEDRIVE - SWINBURNE UNIVERSITY\COS30031 - GAMES PROGRAMMING\REPOSITORY\COS30031-102388915\15 - LAB - SDL2 CONCEPTS\SDL_LIBRARY\SDL_LIBRARY\DEBUG\VC142.IDB
C:\USERS\GRUMP\ONEDRIVE - SWINBURNE UNIVERSITY\COS30031 - GAMES PROGRAMMING\REPOSITORY\COS30031-102388915\15 - LAB - SDL2 CONCEPTS\SDL_LIBRARY\SDL_LIBRARY\DEBUG\TEST1.OBJ
C:\USERS\GRUMP\ONEDRIVE - SWINBURNE UNIVERSITY\COS30031 - GAMES PROGRAMMING\REPOSITORY\COS30031-102388915\15 - LAB - SDL2 CONCEPTS\SDL_LIBRARY\SDL_LIBRARY\DEBUG\SOURCE.OBJ
^C:\USERS\GRUMP\ONEDRIVE - SWINBURNE UNIVERSITY\COS30031 - GAMES PROGRAMMING\REPOSITORY\COS30031-102388915\15 - LAB - SDL2 CONCEPTS\SDL_LIBRARY\SDL_LIBRARY\TEST1.CPP
C:\USERS\GRUMP\ONEDRIVE - SWINBURNE UNIVERSITY\COS30031 - GAMES PROGRAMMING\REPOSITORY\COS30031-102388915\15 - LAB - SDL2 CONCEPTS\SDL_LIBRARY\SDL_LIBRARY\DEBUG\VC142.PDB
^C:\USERS\GRUMP\ONEDRIVE - SWINBURNE UNIVERSITY\COS30031 - GAMES PROGRAMMING\REPOSITORY\COS30031-102388915\15 - LAB - SDL2 CONCEPTS\SDL_LIBRARY\SDL_LIBRARY\SOURCE.CPP
C:\USERS\GRUMP\ONEDRIVE - SWINBURNE UNIVERSITY\COS30031 - GAMES PROGRAMMING\REPOSITORY\COS30031-102388915\15 - LAB - SDL2 CONCEPTS\SDL_LIBRARY\SDL_LIBRARY\DEBUG\VC142.PDB
C:\USERS\GRUMP\ONEDRIVE - SWINBURNE UNIVERSITY\COS30031 - GAMES PROGRAMMING\REPOSITORY\COS30031-102388915\15 - LAB - SDL2 CONCEPTS\SDL_LIBRARY\SDL_LIBRARY\DEBUG\VC142.IDB
C:\USERS\GRUMP\ONEDRIVE - SWINBURNE UNIVERSITY\COS30031 - GAMES PROGRAMMING\REPOSITORY\COS30031-102388915\15 - LAB - SDL2 CONCEPTS\SDL_LIBRARY\SDL_LIBRARY\DEBUG\SOURCE.OBJ
^C:\USERS\GRUMP\ONEDRIVE - SWINBURNE UNIVERSITY\COS30031 - GAMES PROGRAMMING\REPOSITORY\COS30031-102388915\17 - SPIKE - SPRITES AND GRAPHICS\SDL_LIBRARY\SDL_LIBRARY\SOURCE.CPP
C:\USERS\GRUMP\ONEDRIVE - SWINBURNE UNIVERSITY\COS30031 - GAMES PROGRAMMING\REPOSITORY\COS30031-102388915\17 - SPIKE - SPRITES AND GRAPHICS\SDL_LIBRARY\SDL_LIBRARY\DEBUG\VC142.PDB
C:\USERS\GRUMP\ONEDRIVE - SWINBURNE UNIVERSITY\COS30031 - GAMES PROGRAMMING\REPOSITORY\COS30031-102388915\17 - SPIKE - SPRITES AND GRAPHICS\SDL_LIBRARY\SDL_LIBRARY\DEBUG\VC142.IDB
C:\USERS\GRUMP\ONEDRIVE - SWINBURNE UNIVERSITY\COS30031 - GAMES PROGRAMMING\REPOSITORY\COS30031-102388915\17 - SPIKE - SPRITES AND GRAPHICS\SDL_LIBRARY\SDL_LIBRARY\DEBUG\SOURCE.OBJ
