^C:\USERS\GRUMP\ONEDRIVE - SWINBURNE UNIVERSITY\COS30031 - GAMES PROGRAMMING\REPOSITORY\COS30031-102388915\07 - SPIKE - PERFORMANCE MEASUREMENT\PERFORMANCEMEASUREMENT\PERFORMANCEMEASUREMENT\PERFORMANCEMEASUREMENT.CPP
/c /ZI /JMC /nologo /W3 /WX- /diagnostics:column /sdl /Od /Oy- /D WIN32 /D _DEBUG /D _CONSOLE /D _UNICODE /D UNICODE /Gm- /EHsc /RTC1 /MDd /GS /fp:precise /permissive- /Zc:wchar_t /Zc:forScope /Zc:inline /Fo"DEBUG\\" /Fd"DEBUG\VC142.PDB" /external:W3 /Gd /TP /analyze- /FC C:\USERS\GRUMP\ONEDRIVE - SWINBURNE UNIVERSITY\COS30031 - GAMES PROGRAMMING\REPOSITORY\COS30031-102388915\07 - SPIKE - PERFORMANCE MEASUREMENT\PERFORMANCEMEASUREMENT\PERFORMANCEMEASUREMENT\PERFORMANCEMEASUREMENT.CPP
^C:\USERS\GRUMP\ONEDRIVE - SWINBURNE UNIVERSITY\COS30031 - GAMES PROGRAMMING\REPOSITORY\COS30031-102388915\07 - SPIKE - PERFORMANCE MEASUREMENT\PERFORMANCEMEASUREMENT\PERFORMANCEMEASUREMENT\TASK07_SAMPLE1.CPP
/c /ZI /JMC /nologo /W3 /WX- /diagnostics:column /sdl /Od /Oy- /D WIN32 /D _DEBUG /D _CONSOLE /D _UNICODE /D UNICODE /Gm- /EHsc /RTC1 /MDd /GS /fp:precise /permissive- /Zc:wchar_t /Zc:forScope /Zc:inline /Fo"DEBUG\\" /Fd"DEBUG\VC142.PDB" /external:W3 /Gd /TP /analyze- /FC C:\USERS\GRUMP\ONEDRIVE - SWINBURNE UNIVERSITY\COS30031 - GAMES PROGRAMMING\REPOSITORY\COS30031-102388915\07 - SPIKE - PERFORMANCE MEASUREMENT\PERFORMANCEMEASUREMENT\PERFORMANCEMEASUREMENT\TASK07_SAMPLE1.CPP
^C:\USERS\GRUMP\ONEDRIVE - SWINBURNE UNIVERSITY\COS30031 - GAMES PROGRAMMING\REPOSITORY\COS30031-102388915\07 - SPIKE - PERFORMANCE MEASUREMENT\PERFORMANCEMEASUREMENT\PERFORMANCEMEASUREMENT\TASK07_SAMPLE2.CPP
/c /ZI /JMC /nologo /W3 /WX- /diagnostics:column /sdl /Od /Oy- /D WIN32 /D _DEBUG /D _CONSOLE /D _UNICODE /D UNICODE /Gm- /EHsc /RTC1 /MDd /GS /fp:precise /permissive- /Zc:wchar_t /Zc:forScope /Zc:inline /Fo"DEBUG\\" /Fd"DEBUG\VC142.PDB" /external:W3 /Gd /TP /analyze- /FC C:\USERS\GRUMP\ONEDRIVE - SWINBURNE UNIVERSITY\COS30031 - GAMES PROGRAMMING\REPOSITORY\COS30031-102388915\07 - SPIKE - PERFORMANCE MEASUREMENT\PERFORMANCEMEASUREMENT\PERFORMANCEMEASUREMENT\TASK07_SAMPLE2.CPP
